{"componentChunkName":"component---node-modules-gatsby-theme-buzzing-src-gatsby-theme-timeline-templates-posts-query-js","path":"/en/page/25","result":{"data":{"site":{"siteMetadata":{"title":"深度思考","description":"用中文浏览国外深度报道，思考和讨论","social":[{"name":"Food For Thought","url":"https://www.reddit.com/r/Foodforthought/","external":true,"prefetch":null},{"name":"True Reddit","url":"https://www.reddit.com/r/TrueReddit/","external":true,"prefetch":null},{"name":"Buzzing","url":"https://www.buzzing.cc/","external":true,"prefetch":null}],"menuLinks":[],"localize":[{"locale":"en","title":"Buzzing on In-depth thinking","description":"See what's buzzing on In-depth thinking in your native language","social":[{"name":"Reddit","url":"https://www.reddit.com/","external":true,"prefetch":null}],"menuLinks":[{"name":"Weekly Selection","url":"/issues","external":null,"prefetch":null}]},{"locale":"zh-Hant","title":"深度思考","description":"用中文瀏覽國外深度報導，思考和討論","social":null,"menuLinks":[]},{"locale":"ja","title":"深い思考人気の話し合います","description":"人気の深い思考記事を日本語で閲覧","social":null,"menuLinks":[]}]}},"tagsGroup":{"group":[{"fieldValue":"Foodforthought","totalCount":316},{"fieldValue":"TrueReddit","totalCount":298},{"fieldValue":"reddit","totalCount":614}]},"allBlogPost":{"nodes":[{"__typename":"SocialMediaPost","id":"RedditPost-kjvo3h","excerpt":"","slug":"/reddit/r/TrueReddit/comments/kjvo3h/what_happened_to_the_democrats_who_never_accepted/","title":"What Happened to the Democrats Who Never Accepted Bush’s Election","date":"January 14, 2021","dateISO":"2021-01-14T21:42:03.000Z","datetime":"2021-01-14 21:42","tags":["TrueReddit","reddit"],"image":null,"imageAlt":"Reddit Image","provider":"Reddit","thirdPartyId":"kjvo3h","url":"https://www.reddit.com/r/TrueReddit/comments/kjvo3h/what_happened_to_the_democrats_who_never_accepted/","originalUrl":"https://www.reddit.com/r/TrueReddit/comments/kjvo3h/what_happened_to_the_democrats_who_never_accepted/","imageRemote":"https://external-preview.redd.it/uCHjQbbwASNcjvK5BKtUY6XfvqbLPwG332c3YrNBYbw.jpg?width=1080&crop=smart&auto=webp&s=57c1073c141ab998ec03157cca3e87298f95652d","video":null,"channel":"TrueReddit","channelUrl":"https://www.reddit.com/r/TrueReddit","author":"Sewblon","authorUrl":"https://www.reddit.com/user/Sewblon","authorImage":null,"authorSlug":"Sewblon","score":273,"views":null,"sharedCount":null,"likeCount":null,"sharedContent":null,"parent":{"__typename":"RedditJson","localize":[{"title":"从来不接受布什选举的民主党人怎么了？","the_new_excerpt":null,"locale":"zh"},{"title":"從來不接受布什選舉的民主黨人怎麼了？","the_new_excerpt":null,"locale":"zh-Hant"}]}},{"__typename":"SocialMediaPost","id":"RedditPost-kk4kcf","excerpt":"","slug":"/reddit/r/TrueReddit/comments/kk4kcf/nobody_says_hi_in_san_francisco/","title":"Nobody says hi in San Francisco","date":"January 14, 2021","dateISO":"2021-01-14T21:42:03.000Z","datetime":"2021-01-14 21:42","tags":["TrueReddit","reddit"],"image":null,"imageAlt":"Reddit Image","provider":"Reddit","thirdPartyId":"kk4kcf","url":"https://www.reddit.com/r/TrueReddit/comments/kk4kcf/nobody_says_hi_in_san_francisco/","originalUrl":"https://www.reddit.com/r/TrueReddit/comments/kk4kcf/nobody_says_hi_in_san_francisco/","imageRemote":"https://external-preview.redd.it/xRRsPgrvQC0Wyld1YMy-yI8-g0pbgXmdrjxjr2OHvnY.jpg?width=640&crop=smart&auto=webp&s=7f0c77cde9291b72cf6d04a0ed01cd2edd8b70c9","video":null,"channel":"TrueReddit","channelUrl":"https://www.reddit.com/r/TrueReddit","author":"TommyAdagio","authorUrl":"https://www.reddit.com/user/TommyAdagio","authorImage":null,"authorSlug":"TommyAdagio","score":308,"views":null,"sharedCount":null,"likeCount":null,"sharedContent":null,"parent":{"__typename":"RedditJson","localize":[{"title":"在旧金山没有人打招呼","the_new_excerpt":null,"locale":"zh"},{"title":"在舊金山沒有人打招呼","the_new_excerpt":null,"locale":"zh-Hant"}]}},{"__typename":"SocialMediaPost","id":"RedditPost-kkv5fo","excerpt":"","slug":"/reddit/r/TrueReddit/comments/kkv5fo/i_called_everyone_in_jeffrey_epsteins_little/","title":"I Called Everyone in Jeffrey Epstein’s Little Black Book","date":"January 14, 2021","dateISO":"2021-01-14T21:42:03.000Z","datetime":"2021-01-14 21:42","tags":["TrueReddit","reddit"],"image":null,"imageAlt":"Reddit Image","provider":"Reddit","thirdPartyId":"kkv5fo","url":"https://www.reddit.com/r/TrueReddit/comments/kkv5fo/i_called_everyone_in_jeffrey_epsteins_little/","originalUrl":"https://www.reddit.com/r/TrueReddit/comments/kkv5fo/i_called_everyone_in_jeffrey_epsteins_little/","imageRemote":"https://external-preview.redd.it/WgSe_odZgFXNMeHEiuzqWYPpF6Nh4l-uzJmdlZxnFt0.jpg?width=1080&crop=smart&auto=webp&s=e675349c1a19326a98b05a6e299560d30cb66745","video":null,"channel":"TrueReddit","channelUrl":"https://www.reddit.com/r/TrueReddit","author":"TommyAdagio","authorUrl":"https://www.reddit.com/user/TommyAdagio","authorImage":null,"authorSlug":"TommyAdagio","score":700,"views":null,"sharedCount":null,"likeCount":null,"sharedContent":null,"parent":{"__typename":"RedditJson","localize":[{"title":"我在杰弗里-爱泼斯坦的《小黑书》中给大家打了电话。","the_new_excerpt":null,"locale":"zh"},{"title":"我在傑弗裏-愛潑斯坦的《小黑書》中給大家打了電話。","the_new_excerpt":null,"locale":"zh-Hant"}]}},{"__typename":"SocialMediaPost","id":"RedditPost-klw6yh","excerpt":"","slug":"/reddit/r/TrueReddit/comments/klw6yh/the_very_real_totally_bizarre_bucatini_shortage/","title":"The Very Real, Totally Bizarre Bucatini Shortage of 2020","date":"January 14, 2021","dateISO":"2021-01-14T21:42:03.000Z","datetime":"2021-01-14 21:42","tags":["TrueReddit","reddit"],"image":null,"imageAlt":"Reddit Image","provider":"Reddit","thirdPartyId":"klw6yh","url":"https://www.reddit.com/r/TrueReddit/comments/klw6yh/the_very_real_totally_bizarre_bucatini_shortage/","originalUrl":"https://www.reddit.com/r/TrueReddit/comments/klw6yh/the_very_real_totally_bizarre_bucatini_shortage/","imageRemote":"https://external-preview.redd.it/je_W7HJBsmBaAVAu7yKWwrz3mX03Pon3xwZIvBliOkE.jpg?width=1080&crop=smart&auto=webp&s=15c0a1b132c546b12d1a4d2243bd83c52adc10bb","video":null,"channel":"TrueReddit","channelUrl":"https://www.reddit.com/r/TrueReddit","author":"brianbogart","authorUrl":"https://www.reddit.com/user/brianbogart","authorImage":null,"authorSlug":"brianbogart","score":777,"views":null,"sharedCount":null,"likeCount":null,"sharedContent":null,"parent":{"__typename":"RedditJson","localize":[{"title":"2020年非常真实的、完全离奇的青瓜短缺问题","the_new_excerpt":null,"locale":"zh"},{"title":"2020年非常真實的、完全離奇的青瓜短缺問題","the_new_excerpt":null,"locale":"zh-Hant"}]}},{"__typename":"SocialMediaPost","id":"RedditPost-kmttr9","excerpt":"","slug":"/reddit/r/TrueReddit/comments/kmttr9/watching_earth_burn/","title":"Watching Earth Burn","date":"January 14, 2021","dateISO":"2021-01-14T21:42:03.000Z","datetime":"2021-01-14 21:42","tags":["TrueReddit","reddit"],"image":null,"imageAlt":"Reddit Image","provider":"Reddit","thirdPartyId":"kmttr9","url":"https://www.reddit.com/r/TrueReddit/comments/kmttr9/watching_earth_burn/","originalUrl":"https://www.reddit.com/r/TrueReddit/comments/kmttr9/watching_earth_burn/","imageRemote":"https://external-preview.redd.it/FeLF-01KiCANaL65Hj2R9536TX_mte9nwYAk_PJcS6I.jpg?width=960&crop=smart&auto=webp&s=25d2b517edb53a19e0ca988a9e4de9c63fe54f86","video":null,"channel":"TrueReddit","channelUrl":"https://www.reddit.com/r/TrueReddit","author":"Hrodrik","authorUrl":"https://www.reddit.com/user/Hrodrik","authorImage":null,"authorSlug":"Hrodrik","score":338,"views":null,"sharedCount":null,"likeCount":null,"sharedContent":null,"parent":{"__typename":"RedditJson","localize":[{"title":"看着地球燃烧","the_new_excerpt":null,"locale":"zh"},{"title":"看着地球燃燒","the_new_excerpt":null,"locale":"zh-Hant"}]}},{"__typename":"SocialMediaPost","id":"RedditPost-kn7tze","excerpt":"","slug":"/reddit/r/TrueReddit/comments/kn7tze/the_best_thing_about_the_queens_gambit_theres_no/","title":"The best thing about 'The Queen’s Gambit'? There’s no sexual violence in it.","date":"January 14, 2021","dateISO":"2021-01-14T21:42:03.000Z","datetime":"2021-01-14 21:42","tags":["TrueReddit","reddit"],"image":null,"imageAlt":"Reddit Image","provider":"Reddit","thirdPartyId":"kn7tze","url":"https://www.reddit.com/r/TrueReddit/comments/kn7tze/the_best_thing_about_the_queens_gambit_theres_no/","originalUrl":"https://www.reddit.com/r/TrueReddit/comments/kn7tze/the_best_thing_about_the_queens_gambit_theres_no/","imageRemote":"https://external-preview.redd.it/KcLqIuhEld5CNE_wGGgEgsJmXGqpDKXzw2zVKIsbQHI.jpg?width=640&crop=smart&auto=webp&s=268f76ec2e925f126f973a88b746c7ac40b50445","video":null,"channel":"TrueReddit","channelUrl":"https://www.reddit.com/r/TrueReddit","author":"horthorj","authorUrl":"https://www.reddit.com/user/horthorj","authorImage":null,"authorSlug":"horthorj","score":1733,"views":null,"sharedCount":null,"likeCount":null,"sharedContent":null,"parent":{"__typename":"RedditJson","localize":[{"title":"《女王的赌注》最好的地方是什么？里面没有性暴力","the_new_excerpt":null,"locale":"zh"},{"title":"《女王的賭注》最好的地方是什麼？裏面沒有性暴力","the_new_excerpt":null,"locale":"zh-Hant"}]}},{"__typename":"SocialMediaPost","id":"RedditPost-kou37p","excerpt":"","slug":"/reddit/r/TrueReddit/comments/kou37p/the_jungle_prince_of_delhi/","title":"The Jungle Prince of Delhi","date":"January 14, 2021","dateISO":"2021-01-14T21:42:03.000Z","datetime":"2021-01-14 21:42","tags":["TrueReddit","reddit"],"image":null,"imageAlt":"Reddit Image","provider":"Reddit","thirdPartyId":"kou37p","url":"https://www.reddit.com/r/TrueReddit/comments/kou37p/the_jungle_prince_of_delhi/","originalUrl":"https://www.reddit.com/r/TrueReddit/comments/kou37p/the_jungle_prince_of_delhi/","imageRemote":"https://external-preview.redd.it/AVd69Cw7shpBh7UZ7UmKH93PSEdzrV0bzm73qF6uARg.jpg?width=960&crop=smart&auto=webp&s=353d7ae6438cb36e9625657ccfb22b2e0ad163cb","video":null,"channel":"TrueReddit","channelUrl":"https://www.reddit.com/r/TrueReddit","author":"EddieEhlriCh","authorUrl":"https://www.reddit.com/user/EddieEhlriCh","authorImage":null,"authorSlug":"EddieEhlriCh","score":268,"views":null,"sharedCount":null,"likeCount":null,"sharedContent":null,"parent":{"__typename":"RedditJson","localize":[{"title":"德里的丛林王子","the_new_excerpt":null,"locale":"zh"},{"title":"德里的叢林王子","the_new_excerpt":null,"locale":"zh-Hant"}]}},{"__typename":"SocialMediaPost","id":"RedditPost-kp46cr","excerpt":"","slug":"/reddit/r/TrueReddit/comments/kp46cr/the_us_finally_has_a_system_to_prevent_deadly/","title":"The U.S. finally has a system to prevent deadly rail accidents. It took 50 years.","date":"January 14, 2021","dateISO":"2021-01-14T21:42:03.000Z","datetime":"2021-01-14 21:42","tags":["TrueReddit","reddit"],"image":null,"imageAlt":"Reddit Image","provider":"Reddit","thirdPartyId":"kp46cr","url":"https://www.reddit.com/r/TrueReddit/comments/kp46cr/the_us_finally_has_a_system_to_prevent_deadly/","originalUrl":"https://www.reddit.com/r/TrueReddit/comments/kp46cr/the_us_finally_has_a_system_to_prevent_deadly/","imageRemote":"https://external-preview.redd.it/97jnMA-7qJ6EOTE7h4BL5f3EjJrlSHSQELWASzxMOBc.jpg?width=1080&crop=smart&auto=webp&s=6b5ba0cf05dcc86d43ff2d9dd7c339c2af865ff2","video":null,"channel":"TrueReddit","channelUrl":"https://www.reddit.com/r/TrueReddit","author":"huyvanbin","authorUrl":"https://www.reddit.com/user/huyvanbin","authorImage":null,"authorSlug":"huyvanbin","score":925,"views":null,"sharedCount":null,"likeCount":null,"sharedContent":null,"parent":{"__typename":"RedditJson","localize":[{"title":"美国终于有了一套防止致命铁路事故的系统。这花了50年时间。","the_new_excerpt":null,"locale":"zh"},{"title":"美國終於有了一套防止致命鐵路事故的系統。這花了50年時間。","the_new_excerpt":null,"locale":"zh-Hant"}]}},{"__typename":"SocialMediaPost","id":"RedditPost-kprs1w","excerpt":"","slug":"/reddit/r/TrueReddit/comments/kprs1w/a_journey_inside_the_worlds_most_mysterious_cave/","title":"A Journey Inside the World's Most Mysterious Cave","date":"January 14, 2021","dateISO":"2021-01-14T21:42:03.000Z","datetime":"2021-01-14 21:42","tags":["TrueReddit","reddit"],"image":null,"imageAlt":"Reddit Image","provider":"Reddit","thirdPartyId":"kprs1w","url":"https://www.reddit.com/r/TrueReddit/comments/kprs1w/a_journey_inside_the_worlds_most_mysterious_cave/","originalUrl":"https://www.reddit.com/r/TrueReddit/comments/kprs1w/a_journey_inside_the_worlds_most_mysterious_cave/","imageRemote":"https://external-preview.redd.it/IVjOyAAIjaLozBJrG9DSfHBHXT_N-eGgP7qGzwRXv9s.jpg?width=1080&crop=smart&auto=webp&s=3235bb68f1c28a681637d956f839e21b5bd6dffe","video":null,"channel":"TrueReddit","channelUrl":"https://www.reddit.com/r/TrueReddit","author":"l_hazlewoods","authorUrl":"https://www.reddit.com/user/l_hazlewoods","authorImage":null,"authorSlug":"l_hazlewoods","score":207,"views":null,"sharedCount":null,"likeCount":null,"sharedContent":null,"parent":{"__typename":"RedditJson","localize":[{"title":"世界上最神秘的洞穴之旅","the_new_excerpt":null,"locale":"zh"},{"title":"世界上最神祕的洞穴之旅","the_new_excerpt":null,"locale":"zh-Hant"}]}},{"__typename":"SocialMediaPost","id":"RedditPost-kq90l9","excerpt":"","slug":"/reddit/r/TrueReddit/comments/kq90l9/the_myth_of_the_alpha_male/","title":"The Myth of the Alpha Male","date":"January 14, 2021","dateISO":"2021-01-14T21:42:03.000Z","datetime":"2021-01-14 21:42","tags":["TrueReddit","reddit"],"image":null,"imageAlt":"Reddit Image","provider":"Reddit","thirdPartyId":"kq90l9","url":"https://www.reddit.com/r/TrueReddit/comments/kq90l9/the_myth_of_the_alpha_male/","originalUrl":"https://www.reddit.com/r/TrueReddit/comments/kq90l9/the_myth_of_the_alpha_male/","imageRemote":"https://external-preview.redd.it/Bk5TMTC6PBttbIvz22K8FIPvKrOZmHHCpTGcaMn5peU.jpg?width=216&crop=smart&auto=webp&s=2820919db7083232aee560d174c8a02b02a01220","video":null,"channel":"TrueReddit","channelUrl":"https://www.reddit.com/r/TrueReddit","author":"PenisShapedSilencer","authorUrl":"https://www.reddit.com/user/PenisShapedSilencer","authorImage":null,"authorSlug":"PenisShapedSilencer","score":474,"views":null,"sharedCount":null,"likeCount":null,"sharedContent":null,"parent":{"__typename":"RedditJson","localize":[{"title":"阿尔法男性的神话","the_new_excerpt":null,"locale":"zh"},{"title":"阿爾法男性的神話","the_new_excerpt":null,"locale":"zh-Hant"}]}},{"__typename":"SocialMediaPost","id":"RedditPost-kr9uw0","excerpt":"","slug":"/reddit/r/TrueReddit/comments/kr9uw0/a_brief_history_of_peanut_butter/","title":"A Brief History of Peanut Butter","date":"January 14, 2021","dateISO":"2021-01-14T21:42:03.000Z","datetime":"2021-01-14 21:42","tags":["TrueReddit","reddit"],"image":null,"imageAlt":"Reddit Image","provider":"Reddit","thirdPartyId":"kr9uw0","url":"https://www.reddit.com/r/TrueReddit/comments/kr9uw0/a_brief_history_of_peanut_butter/","originalUrl":"https://www.reddit.com/r/TrueReddit/comments/kr9uw0/a_brief_history_of_peanut_butter/","imageRemote":"https://external-preview.redd.it/jjT50kYwbz5tjjfJQly0XVQr1Yq4Wo5xycQFQ93zQeg.jpg?width=640&crop=smart&auto=webp&s=837dfb60a8aa58d1b049db2bc17ad24679ae1c15","video":null,"channel":"TrueReddit","channelUrl":"https://www.reddit.com/r/TrueReddit","author":"RalphSchmaccio","authorUrl":"https://www.reddit.com/user/RalphSchmaccio","authorImage":null,"authorSlug":"RalphSchmaccio","score":392,"views":null,"sharedCount":null,"likeCount":null,"sharedContent":null,"parent":{"__typename":"RedditJson","localize":[{"title":"花生酱简史","the_new_excerpt":null,"locale":"zh"},{"title":"花生醬簡史","the_new_excerpt":null,"locale":"zh-Hant"}]}},{"__typename":"SocialMediaPost","id":"RedditPost-ktuzwj","excerpt":"","slug":"/reddit/r/TrueReddit/comments/ktuzwj/they_spent_12_years_solving_a_puzzle_it_yielded/","title":"They spent 12 years solving a puzzle. It yielded the first COVID-19 vaccines.","date":"January 14, 2021","dateISO":"2021-01-14T21:42:03.000Z","datetime":"2021-01-14 21:42","tags":["TrueReddit","reddit"],"image":null,"imageAlt":"Reddit Image","provider":"Reddit","thirdPartyId":"ktuzwj","url":"https://www.reddit.com/r/TrueReddit/comments/ktuzwj/they_spent_12_years_solving_a_puzzle_it_yielded/","originalUrl":"https://www.reddit.com/r/TrueReddit/comments/ktuzwj/they_spent_12_years_solving_a_puzzle_it_yielded/","imageRemote":"https://external-preview.redd.it/nVhlhxZ4uhZjKvWsIdezZCnAa4zZA4z6vcPlL7fZVJc.jpg?width=1080&crop=smart&auto=webp&s=a68c1abb3709296e76bf6c3b6f26b4baff18f1ab","video":null,"channel":"TrueReddit","channelUrl":"https://www.reddit.com/r/TrueReddit","author":"brucespringsteinfan","authorUrl":"https://www.reddit.com/user/brucespringsteinfan","authorImage":null,"authorSlug":"brucespringsteinfan","score":719,"views":null,"sharedCount":null,"likeCount":null,"sharedContent":null,"parent":{"__typename":"RedditJson","localize":[{"title":"他们花了12年时间解决一个难题。它产生了第一批COVID-19疫苗。","the_new_excerpt":null,"locale":"zh"},{"title":"他們花了12年時間解決一個難題。它產生了第一批COVID-19疫苗。","the_new_excerpt":null,"locale":"zh-Hant"}]}},{"__typename":"SocialMediaPost","id":"RedditPost-kuei21","excerpt":"","slug":"/reddit/r/TrueReddit/comments/kuei21/politics_would_be_less_crazy_if_voting_were/","title":"Politics Would Be Less Crazy If Voting Were Compulsory","date":"January 14, 2021","dateISO":"2021-01-14T21:42:03.000Z","datetime":"2021-01-14 21:42","tags":["TrueReddit","reddit"],"image":null,"imageAlt":"Reddit Image","provider":"Reddit","thirdPartyId":"kuei21","url":"https://www.reddit.com/r/TrueReddit/comments/kuei21/politics_would_be_less_crazy_if_voting_were/","originalUrl":"https://www.reddit.com/r/TrueReddit/comments/kuei21/politics_would_be_less_crazy_if_voting_were/","imageRemote":"https://external-preview.redd.it/PApzNFfskGRTD86V8CRtPRrKl6wrVWhlRr_nuF5bjDg.jpg?width=960&crop=smart&auto=webp&s=84deaa36272520032674347c4dcc14f9b312bb25","video":null,"channel":"TrueReddit","channelUrl":"https://www.reddit.com/r/TrueReddit","author":"phileconomicus","authorUrl":"https://www.reddit.com/user/phileconomicus","authorImage":null,"authorSlug":"phileconomicus","score":1088,"views":null,"sharedCount":null,"likeCount":null,"sharedContent":null,"parent":{"__typename":"RedditJson","localize":[{"title":"如果投票是强制性的，政治就不会那么疯狂。","the_new_excerpt":null,"locale":"zh"},{"title":"如果投票是強制性的，政治就不會那麼瘋狂。","the_new_excerpt":null,"locale":"zh-Hant"}]}},{"__typename":"SocialMediaPost","id":"RedditPost-kuyynv","excerpt":"","slug":"/reddit/r/TrueReddit/comments/kuyynv/the_us_has_a_lottery_problem_but_its_not_the/","title":"The U.S. has a lottery problem. But it’s not the people buying tickets.","date":"January 14, 2021","dateISO":"2021-01-14T21:42:03.000Z","datetime":"2021-01-14 21:42","tags":["TrueReddit","reddit"],"image":null,"imageAlt":"Reddit Image","provider":"Reddit","thirdPartyId":"kuyynv","url":"https://www.reddit.com/r/TrueReddit/comments/kuyynv/the_us_has_a_lottery_problem_but_its_not_the/","originalUrl":"https://www.reddit.com/r/TrueReddit/comments/kuyynv/the_us_has_a_lottery_problem_but_its_not_the/","imageRemote":"https://external-preview.redd.it/pFWQZrXmIP2WRzeslBryuax2m1ps2Yv8n7UdVpCVsY4.jpg?width=960&crop=smart&auto=webp&s=dcbb9aa3fc3a1632d5ada920eb201956f329b457","video":null,"channel":"TrueReddit","channelUrl":"https://www.reddit.com/r/TrueReddit","author":"RandomCollection","authorUrl":"https://www.reddit.com/user/RandomCollection","authorImage":null,"authorSlug":"RandomCollection","score":731,"views":null,"sharedCount":null,"likeCount":null,"sharedContent":null,"parent":{"__typename":"RedditJson","localize":[{"title":"美国有一个彩票问题。但不是买彩票的人的问题。","the_new_excerpt":null,"locale":"zh"},{"title":"美國有一個彩票問題。但不是買彩票的人的問題。","the_new_excerpt":null,"locale":"zh-Hant"}]}}]}},"pageContext":{"basePath":"/","pageType":"home","tagsFilter":{"id":{"glob":"!*Post-1"}},"filter":{"id":{"glob":"!*Post-1"}},"limit":25,"skip":600,"totalPages":25,"total":614,"currentPage":25,"maxWidth":1024,"maxHeight":512,"locale":"en","hrefLang":"en-US","originalPath":"/page/25","dateFormat":"MM/DD/YYYY"}},"staticQueryHashes":["1239077767","2506312863","2744905544","3025052997","3493603132","3493603132","3513215887","386998304"]}