{"componentChunkName":"component---node-modules-gatsby-theme-buzzing-src-gatsby-theme-timeline-templates-posts-query-js","path":"/page/6","result":{"data":{"site":{"siteMetadata":{"title":"深度思考","author":"Buzzing.cc","description":"用中文浏览国外深度报道，思考和讨论","keywords":["buzzing","深度报道","深度思考","国外深度报道","深度好文","有深度的文章"],"siteUrl":"https://depth.buzzing.cc","telegram":"@buzzingcc","iconUrl":"https://depth.buzzing.cc/avatar.jpg","defaultSocialImageUrl":null,"social":[{"name":"Food For Thought","url":"https://www.reddit.com/r/Foodforthought/","external":true},{"name":"True Reddit","url":"https://www.reddit.com/r/TrueReddit/","external":true},{"name":"Buzzing","url":"https://www.buzzing.cc/","external":true}],"menuLinks":[],"disqus":null,"utterances":null}},"tagsGroup":{"group":[{"fieldValue":"Foodforthought","totalCount":145},{"fieldValue":"TrueReddit","totalCount":107},{"fieldValue":"reddit","totalCount":252}]},"allBlogPost":{"nodes":[{"id":"RedditPost-43900cc0-97d0-5aff-9207-eb1383070b8f","excerpt":"","slug":"/reddit/r/Foodforthought/comments/n2dlbi/the_epic_decadeslong_battle_between_ford_and_a/","title":"The epic, decades-long battle between Ford and a small-time inventor - 50 years ago, Ford stole a patented design for a new type of windshield wiper. But they picked the wrong inventor to screw with.","date":"May 01, 2021","dateISO":"2021-05-01T11:24:15.000Z","datetime":"2021-05-01 11:24","tags":["Foodforthought","reddit"],"image":null,"imageAlt":null,"__typename":"SocialMediaPost","provider":"Reddit","thirdPartyId":"43900cc0-97d0-5aff-9207-eb1383070b8f","url":"https://www.reddit.com/r/Foodforthought/comments/n2dlbi/the_epic_decadeslong_battle_between_ford_and_a/","originalUrl":"https://www.reddit.com/r/Foodforthought/comments/n2dlbi/the_epic_decadeslong_battle_between_ford_and_a/","imageRemote":null,"video":null,"channel":"Foodforthought","channelUrl":"https://www.reddit.com/r/Foodforthought","author":"taulover","authorUrl":"https://www.reddit.com/user/taulover","authorImageRemote":null,"authorImage":null,"authorSlug":"taulover","score":60,"views":null,"sharedCount":null,"likeCount":null,"sharedContent":null,"parent":{"localize":[{"title":"フォード社と小さな発明家との数十年にわたる壮大な戦い - 50年前、フォード社は新型ワイパーの特許デザインを盗みました。しかし、彼らは相手にする発明家を間違えてしまったのです。","the_new_excerpt":null,"locale":"ja"},{"title":"福特公司和一个小发明家之间长达数十年的史诗般的斗争--50年前，福特公司偷了一种新型挡风玻璃雨刷的专利设计。但是，他们选错了发明家来捣乱。","the_new_excerpt":null,"locale":"zh"},{"title":"福特公司和一個小發明家之間長達數十年的史詩般的鬥爭--50年前，福特公司偷了一種新型擋風玻璃雨刷的專利設計。但是，他們選錯了發明家來搗亂。","the_new_excerpt":null,"locale":"zh-Hant"}]}},{"id":"RedditPost-131ae29c-443c-5d8b-af2a-4127cf795934","excerpt":"","slug":"/reddit/r/TrueReddit/comments/n2d6ds/the_trig_pillars_that_helped_map_great_britain/","title":"The trig pillars that helped map Great Britain","date":"May 01, 2021","dateISO":"2021-05-01T09:51:28.000Z","datetime":"2021-05-01 09:51","tags":["TrueReddit","reddit"],"image":null,"imageAlt":"Reddit Image","__typename":"SocialMediaPost","provider":"Reddit","thirdPartyId":"131ae29c-443c-5d8b-af2a-4127cf795934","url":"https://www.reddit.com/r/TrueReddit/comments/n2d6ds/the_trig_pillars_that_helped_map_great_britain/","originalUrl":"https://www.reddit.com/r/TrueReddit/comments/n2d6ds/the_trig_pillars_that_helped_map_great_britain/","imageRemote":"https://external-preview.redd.it/aZ5b69X75A5_ubmxWytUQOBr6FkvaXN-_m847YGK2iU.jpg?width=960&crop=smart&auto=webp&s=323237e6e9717b7fe0c749d070e7a00265929204","video":null,"channel":"TrueReddit","channelUrl":"https://www.reddit.com/r/TrueReddit","author":"grendelt","authorUrl":"https://www.reddit.com/user/grendelt","authorImageRemote":null,"authorImage":null,"authorSlug":"grendelt","score":57,"views":null,"sharedCount":null,"likeCount":null,"sharedContent":null,"parent":{"localize":[{"title":"イギリスの地図作成に貢献した三角柱","the_new_excerpt":null,"locale":"ja"},{"title":"帮助绘制大不列颠地图的三叉星柱","the_new_excerpt":null,"locale":"zh"},{"title":"幫助繪製大不列顛地圖的三叉星柱","the_new_excerpt":null,"locale":"zh-Hant"}]}}]}},"pageContext":{"basePath":"/","pageType":"home","tagsFilter":{"date":{"gt":"2000-12-25T10:54:58.000Z"}},"filter":{"date":{"gt":"2000-12-25T10:54:58.000Z"}},"limit":50,"skip":250,"totalPages":6,"total":252,"currentPage":6,"maxWidth":1024,"maxHeight":512,"siteMetadata":null,"locale":"zh","hrefLang":"zh-Hans","originalPath":"/page/6","dateFormat":"YYYY-MM-DD"}},"staticQueryHashes":["1239077767","2744905544","3025052997","3280999885"]}