{"componentChunkName":"component---node-modules-gatsby-theme-buzzing-src-gatsby-theme-timeline-templates-posts-query-js","path":"/zh-Hant/page/6","result":{"data":{"site":{"siteMetadata":{"title":"深度思考","author":"Buzzing.cc","description":"用中文浏览国外深度报道，思考和讨论","keywords":["buzzing","深度报道","深度思考","国外深度报道","深度好文","有深度的文章"],"siteUrl":"https://depth.buzzing.cc","telegram":"@buzzingcc","iconUrl":"https://depth.buzzing.cc/avatar.jpg","defaultSocialImageUrl":null,"social":[{"name":"Food For Thought","url":"https://www.reddit.com/r/Foodforthought/","external":true},{"name":"True Reddit","url":"https://www.reddit.com/r/TrueReddit/","external":true},{"name":"Buzzing","url":"https://www.buzzing.cc/","external":true}],"menuLinks":[],"disqus":null,"utterances":null}},"tagsGroup":{"group":[{"fieldValue":"Foodforthought","totalCount":148},{"fieldValue":"TrueReddit","totalCount":108},{"fieldValue":"reddit","totalCount":256}]},"allBlogPost":{"nodes":[{"id":"RedditPost-83d3074e-e590-586d-9103-22431f77f2be","excerpt":"","slug":"/reddit/r/Foodforthought/comments/n2u742/i_got_obamad_a_california_conflictresolution_guru/","title":"'I Got Obama'd' — A California conflict-resolution guru entered politics thinking he could fix it. Instead, it brought a punishing counterattack. [Muir Beach, Marin County, Bay Area, CA]","date":"May 02, 2021","dateISO":"2021-05-02T06:34:32.000Z","datetime":"2021-05-02 06:34","tags":["Foodforthought","reddit"],"image":null,"imageAlt":null,"__typename":"SocialMediaPost","provider":"Reddit","thirdPartyId":"83d3074e-e590-586d-9103-22431f77f2be","url":"https://www.reddit.com/r/Foodforthought/comments/n2u742/i_got_obamad_a_california_conflictresolution_guru/","originalUrl":"https://www.reddit.com/r/Foodforthought/comments/n2u742/i_got_obamad_a_california_conflictresolution_guru/","imageRemote":null,"video":null,"channel":"Foodforthought","channelUrl":"https://www.reddit.com/r/Foodforthought","author":"BlankVerse","authorUrl":"https://www.reddit.com/user/BlankVerse","authorImageRemote":null,"authorImage":null,"authorSlug":"BlankVerse","score":57,"views":null,"sharedCount":null,"likeCount":null,"sharedContent":null,"parent":{"localize":[{"title":"I Got Obama'd」-カリフォルニアの紛争解決の第一人者は、自分が解決できると思って政治の世界に入りました。その代わり、懲罰的な反撃を受けました。[ミュアビーチ、マリン郡、ベイエリア、カリフォルニア州].","the_new_excerpt":null,"locale":"ja"},{"title":"我得到了奥巴马的帮助》--加州一位解决冲突的大师进入政界，认为他可以解决冲突。相反，它带来了惩罚性的反击。[加州湾区马林县穆尔海滩] [Muir Beach, Marin County, Bay Area, CA]","the_new_excerpt":null,"locale":"zh"},{"title":"我得到了奧巴馬的幫助》--加州一位解決衝突的大師進入政界，認爲他可以解決衝突。相反，它帶來了懲罰性的反擊。[加州灣區馬林縣穆爾海灘] [Muir Beach, Marin County, Bay Area, CA]","the_new_excerpt":null,"locale":"zh-Hant"}]}},{"id":"RedditPost-2c5ec84c-091a-5616-93f9-a886d12e7943","excerpt":"","slug":"/reddit/r/Foodforthought/comments/n2m7y6/how_the_federal_reserve_is_increasing_wealth/","title":"How the Federal Reserve Is Increasing Wealth Inequality - The Fed’s low-interest-rate policies have stabilized the economy and turbocharged the stock market. But those who don’t own lots of stocks haven’t benefited anywhere near as much as those who do.","date":"May 01, 2021","dateISO":"2021-05-01T23:19:25.000Z","datetime":"2021-05-01 23:19","tags":["Foodforthought","reddit"],"image":null,"imageAlt":null,"__typename":"SocialMediaPost","provider":"Reddit","thirdPartyId":"2c5ec84c-091a-5616-93f9-a886d12e7943","url":"https://www.reddit.com/r/Foodforthought/comments/n2m7y6/how_the_federal_reserve_is_increasing_wealth/","originalUrl":"https://www.reddit.com/r/Foodforthought/comments/n2m7y6/how_the_federal_reserve_is_increasing_wealth/","imageRemote":null,"video":null,"channel":"Foodforthought","channelUrl":"https://www.reddit.com/r/Foodforthought","author":"speckz","authorUrl":"https://www.reddit.com/user/speckz","authorImageRemote":null,"authorImage":null,"authorSlug":"speckz","score":56,"views":null,"sharedCount":null,"likeCount":null,"sharedContent":null,"parent":{"localize":[{"title":"How the Federal Reserve Is Increasing Wealth Inequality - FRBの低金利政策は経済を安定させ、株式市場を活性化させた。しかし、株をたくさん持っていない人は、持っている人ほど恩恵を受けていない。","the_new_excerpt":null,"locale":"ja"},{"title":"美联储如何增加财富不平等 - 美联储的低利率政策稳定了经济并推动了股市的发展。但那些不拥有大量股票的人并没有像那些拥有股票的人那样受益。","the_new_excerpt":null,"locale":"zh"},{"title":"美聯儲如何增加財富不平等 - 美聯儲的低利率政策穩定了經濟並推動了股市的發展。但那些不擁有大量股票的人並沒有像那些擁有股票的人那樣受益。","the_new_excerpt":null,"locale":"zh-Hant"}]}},{"id":"RedditPost-bebd61b9-65ab-55dd-b201-f855a79cc172","excerpt":"","slug":"/reddit/r/TrueReddit/comments/n2pog2/disney_got_itself_a_if_you_own_a_themepark/","title":"Disney Got Itself A 'If You Own A Themepark...' Carveout From Florida's Blatantly Unconstitutional Social Media Moderation Bill","date":"May 01, 2021","dateISO":"2021-05-01T23:19:25.000Z","datetime":"2021-05-01 23:19","tags":["TrueReddit","reddit"],"image":null,"imageAlt":"Reddit Image","__typename":"SocialMediaPost","provider":"Reddit","thirdPartyId":"bebd61b9-65ab-55dd-b201-f855a79cc172","url":"https://www.reddit.com/r/TrueReddit/comments/n2pog2/disney_got_itself_a_if_you_own_a_themepark/","originalUrl":"https://www.reddit.com/r/TrueReddit/comments/n2pog2/disney_got_itself_a_if_you_own_a_themepark/","imageRemote":"https://external-preview.redd.it/mTXJrxCvif-K5f4XFJxTMKqq4RdLHYI2bRMypKAwArY.jpg?width=216&crop=smart&auto=webp&s=c055b2e0f69d65eb3f25a4193ac4cefa13411243","video":null,"channel":"TrueReddit","channelUrl":"https://www.reddit.com/r/TrueReddit","author":"Albion_Tourgee","authorUrl":"https://www.reddit.com/user/Albion_Tourgee","authorImageRemote":null,"authorImage":null,"authorSlug":"Albion_Tourgee","score":64,"views":null,"sharedCount":null,"likeCount":null,"sharedContent":null,"parent":{"localize":[{"title":"ディズニー、「テーマパークを持っていれば...」を獲得。フロリダ州のあからさまに違憲なソーシャルメディア規制法案からの除外について","the_new_excerpt":null,"locale":"ja"},{"title":"迪斯尼为自己争取到了 \"如果你拥有一个主题公园...... 佛罗里达州公然违反宪法的社交媒体管理法案的例外情况","the_new_excerpt":null,"locale":"zh"},{"title":"迪斯尼爲自己爭取到了 \"如果你擁有一個主題公園...... 佛羅里達州公然違反憲法的社交媒體管理法案的例外情況","the_new_excerpt":null,"locale":"zh-Hant"}]}},{"id":"RedditPost-61b86072-7300-5f59-a0f9-03ed09b19b72","excerpt":"","slug":"/reddit/r/TrueReddit/comments/n2irnn/the_forgotten_precedent_for_our_unprecedented/","title":"The Forgotten Precedent for Our ‘Unprecedented’ Political Insanity","date":"May 01, 2021","dateISO":"2021-05-01T16:00:38.000Z","datetime":"2021-05-01 16:00","tags":["TrueReddit","reddit"],"image":null,"imageAlt":"Reddit Image","__typename":"SocialMediaPost","provider":"Reddit","thirdPartyId":"61b86072-7300-5f59-a0f9-03ed09b19b72","url":"https://www.reddit.com/r/TrueReddit/comments/n2irnn/the_forgotten_precedent_for_our_unprecedented/","originalUrl":"https://www.reddit.com/r/TrueReddit/comments/n2irnn/the_forgotten_precedent_for_our_unprecedented/","imageRemote":"https://external-preview.redd.it/46QYBxvN_xfHjKlPUkz-eT8tJfBI5tJx7qwaaX1OtpM.jpg?width=1080&crop=smart&auto=webp&s=b4d3283b4c467269c49da74782543a0ce7255b4e","video":null,"channel":"TrueReddit","channelUrl":"https://www.reddit.com/r/TrueReddit","author":"Sewblon","authorUrl":"https://www.reddit.com/user/Sewblon","authorImageRemote":null,"authorImage":null,"authorSlug":"Sewblon","score":63,"views":null,"sharedCount":null,"likeCount":null,"sharedContent":null,"parent":{"localize":[{"title":"前代未聞」の政治的狂気の忘れられた前例","the_new_excerpt":null,"locale":"ja"},{"title":"我们 \"史无前例 \"的政治疯狂的被遗忘的先例","the_new_excerpt":null,"locale":"zh"},{"title":"我們 \"史無前例 \"的政治瘋狂的被遺忘的先例","the_new_excerpt":null,"locale":"zh-Hant"}]}},{"id":"RedditPost-43900cc0-97d0-5aff-9207-eb1383070b8f","excerpt":"","slug":"/reddit/r/Foodforthought/comments/n2dlbi/the_epic_decadeslong_battle_between_ford_and_a/","title":"The epic, decades-long battle between Ford and a small-time inventor - 50 years ago, Ford stole a patented design for a new type of windshield wiper. But they picked the wrong inventor to screw with.","date":"May 01, 2021","dateISO":"2021-05-01T11:24:15.000Z","datetime":"2021-05-01 11:24","tags":["Foodforthought","reddit"],"image":null,"imageAlt":null,"__typename":"SocialMediaPost","provider":"Reddit","thirdPartyId":"43900cc0-97d0-5aff-9207-eb1383070b8f","url":"https://www.reddit.com/r/Foodforthought/comments/n2dlbi/the_epic_decadeslong_battle_between_ford_and_a/","originalUrl":"https://www.reddit.com/r/Foodforthought/comments/n2dlbi/the_epic_decadeslong_battle_between_ford_and_a/","imageRemote":null,"video":null,"channel":"Foodforthought","channelUrl":"https://www.reddit.com/r/Foodforthought","author":"taulover","authorUrl":"https://www.reddit.com/user/taulover","authorImageRemote":null,"authorImage":null,"authorSlug":"taulover","score":60,"views":null,"sharedCount":null,"likeCount":null,"sharedContent":null,"parent":{"localize":[{"title":"フォード社と小さな発明家との数十年にわたる壮大な戦い - 50年前、フォード社は新型ワイパーの特許デザインを盗みました。しかし、彼らは相手にする発明家を間違えてしまったのです。","the_new_excerpt":null,"locale":"ja"},{"title":"福特公司和一个小发明家之间长达数十年的史诗般的斗争--50年前，福特公司偷了一种新型挡风玻璃雨刷的专利设计。但是，他们选错了发明家来捣乱。","the_new_excerpt":null,"locale":"zh"},{"title":"福特公司和一個小發明家之間長達數十年的史詩般的鬥爭--50年前，福特公司偷了一種新型擋風玻璃雨刷的專利設計。但是，他們選錯了發明家來搗亂。","the_new_excerpt":null,"locale":"zh-Hant"}]}},{"id":"RedditPost-131ae29c-443c-5d8b-af2a-4127cf795934","excerpt":"","slug":"/reddit/r/TrueReddit/comments/n2d6ds/the_trig_pillars_that_helped_map_great_britain/","title":"The trig pillars that helped map Great Britain","date":"May 01, 2021","dateISO":"2021-05-01T09:51:28.000Z","datetime":"2021-05-01 09:51","tags":["TrueReddit","reddit"],"image":null,"imageAlt":"Reddit Image","__typename":"SocialMediaPost","provider":"Reddit","thirdPartyId":"131ae29c-443c-5d8b-af2a-4127cf795934","url":"https://www.reddit.com/r/TrueReddit/comments/n2d6ds/the_trig_pillars_that_helped_map_great_britain/","originalUrl":"https://www.reddit.com/r/TrueReddit/comments/n2d6ds/the_trig_pillars_that_helped_map_great_britain/","imageRemote":"https://external-preview.redd.it/aZ5b69X75A5_ubmxWytUQOBr6FkvaXN-_m847YGK2iU.jpg?width=960&crop=smart&auto=webp&s=323237e6e9717b7fe0c749d070e7a00265929204","video":null,"channel":"TrueReddit","channelUrl":"https://www.reddit.com/r/TrueReddit","author":"grendelt","authorUrl":"https://www.reddit.com/user/grendelt","authorImageRemote":null,"authorImage":null,"authorSlug":"grendelt","score":57,"views":null,"sharedCount":null,"likeCount":null,"sharedContent":null,"parent":{"localize":[{"title":"イギリスの地図作成に貢献した三角柱","the_new_excerpt":null,"locale":"ja"},{"title":"帮助绘制大不列颠地图的三叉星柱","the_new_excerpt":null,"locale":"zh"},{"title":"幫助繪製大不列顛地圖的三叉星柱","the_new_excerpt":null,"locale":"zh-Hant"}]}}]}},"pageContext":{"basePath":"/","pageType":"home","tagsFilter":{"date":{"gt":"2000-12-25T10:54:58.000Z"}},"filter":{"date":{"gt":"2000-12-25T10:54:58.000Z"}},"limit":50,"skip":250,"totalPages":6,"total":256,"currentPage":6,"maxWidth":1024,"maxHeight":512,"siteMetadata":null,"locale":"zh-Hant","hrefLang":"zh-Hant","originalPath":"/page/6","dateFormat":"YYYY-MM-DD"}},"staticQueryHashes":["1239077767","2744905544","3025052997","3280999885"]}