{
    "componentChunkName": "component---node-modules-gatsby-theme-buzzing-src-gatsby-theme-timeline-templates-posts-query-js",
    "path": "/page/7",
    "result": {"data":{"site":{"siteMetadata":{"title":"深度思考","author":"Buzzing.cc","description":"用中文浏览国外深度报道，思考和讨论","keywords":["buzzing","深度报道","深度思考","国外深度报道","深度好文","有深度的文章"],"siteUrl":"https://depth.buzzing.cc","telegram":"@buzzingcc","iconUrl":"https://depth.buzzing.cc/avatar.jpg","defaultSocialImageUrl":null,"social":[{"name":"Food For Thought","url":"https://www.reddit.com/r/Foodforthought/","external":true},{"name":"True Reddit","url":"https://www.reddit.com/r/TrueReddit/","external":true},{"name":"Buzzing","url":"https://www.buzzing.cc/","external":true}],"menuLinks":[],"disqus":null,"utterances":null,"localize":[{"title":"Buzzing on In-depth thinking","description":"See what's buzzing on In-depth thinking in your native language","keywords":["buzzing","In-depth thinking"],"locale":"en","social":{"name":null,"url":null,"external":null},"menuLinks":[{"name":"Weekly Selection","url":"/issues","external":null}]},{"title":"深度思考","description":"用中文瀏覽國外深度報導，思考和討論","keywords":["buzzing","深度報導","深度思考","國外深度報導","深度好文","有深度的文章"],"locale":"zh-Hant","social":null,"menuLinks":[]},{"title":"深い思考人気の話し合います","description":"人気の深い思考記事を日本語で閲覧","keywords":["buzzing","深い思考"],"locale":"ja","social":null,"menuLinks":[]}]}},"tagsGroup":{"group":[{"fieldValue":"Foodforthought","totalCount":168},{"fieldValue":"TrueReddit","totalCount":134},{"fieldValue":"reddit","totalCount":302}]},"allBlogPost":{"nodes":[{"id":"RedditPost-pzfa0d","excerpt":"","slug":"/reddit/r/TrueReddit/comments/pzfa0d/scientific_review_deems_covid_booster_shots/","title":"Scientific review deems COVID booster shots unnecessary for the general public for the time being","date":"October 01, 2021","dateISO":"2021-10-01T20:20:01.000Z","datetime":"2021-10-01 20:20","tags":["TrueReddit","reddit"],"image":null,"imageAlt":"Reddit Image","__typename":"SocialMediaPost","provider":"Reddit","thirdPartyId":"pzfa0d","url":"https://www.reddit.com/r/TrueReddit/comments/pzfa0d/scientific_review_deems_covid_booster_shots/","originalUrl":"https://www.reddit.com/r/TrueReddit/comments/pzfa0d/scientific_review_deems_covid_booster_shots/","imageRemote":"https://external-preview.redd.it/WyD4He8A2GlRJQ55dArBSUBv1vimExFoI2hRej5DVr4.jpg?width=1080&crop=smart&auto=webp&s=1518d1227fdc21f9760b974326f60edaed623548","video":null,"channel":"TrueReddit","channelUrl":"https://www.reddit.com/r/TrueReddit","author":"miaumee","authorUrl":"https://www.reddit.com/user/miaumee","authorImageRemote":null,"authorImage":null,"authorSlug":"miaumee","score":51,"views":null,"sharedCount":null,"likeCount":null,"sharedContent":null,"parent":{"localize":[{"title":"科学的検証の結果、COVIDブースターショットは当面、一般の人々には不要と判断","the_new_excerpt":null,"locale":"ja"},{"title":"科学审查认为一般公众暂时没有必要打COVID加强针","the_new_excerpt":null,"locale":"zh"},{"title":"科學審查認爲一般公衆暫時沒有必要打COVID加強針","the_new_excerpt":null,"locale":"zh-Hant"}]}},{"id":"RedditPost-pz3vnh","excerpt":"","slug":"/reddit/r/Foodforthought/comments/pz3vnh/less_meat_is_good_for_us_and_the_planet_why_are/","title":"Less meat is good for us and the planet – why are politicians shy to say so?","date":"October 01, 2021","dateISO":"2021-10-01T13:55:44.000Z","datetime":"2021-10-01 13:55","tags":["Foodforthought","reddit"],"image":null,"imageAlt":null,"__typename":"SocialMediaPost","provider":"Reddit","thirdPartyId":"pz3vnh","url":"https://www.reddit.com/r/Foodforthought/comments/pz3vnh/less_meat_is_good_for_us_and_the_planet_why_are/","originalUrl":"https://www.reddit.com/r/Foodforthought/comments/pz3vnh/less_meat_is_good_for_us_and_the_planet_why_are/","imageRemote":null,"video":null,"channel":"Foodforthought","channelUrl":"https://www.reddit.com/r/Foodforthought","author":"RavenGurlHere","authorUrl":"https://www.reddit.com/user/RavenGurlHere","authorImageRemote":null,"authorImage":null,"authorSlug":"RavenGurlHere","score":56,"views":null,"sharedCount":null,"likeCount":null,"sharedContent":null,"parent":{"localize":[{"title":"肉を減らすことは、私たちにも地球にも良いことなのに、なぜ政治家はそれを言いたがらないのでしょうか？","the_new_excerpt":null,"locale":"ja"},{"title":"少吃肉对我们和地球都有好处--为什么政客们羞于这么说？","the_new_excerpt":null,"locale":"zh"},{"title":"少喫肉對我們和地球都有好處--爲什麼政客們羞於這麼說？","the_new_excerpt":null,"locale":"zh-Hant"}]}}]}},"pageContext":{"basePath":"/","pageType":"home","tagsFilter":{"date":{"gt":"2000-12-25T10:54:58.000Z"}},"filter":{"date":{"gt":"2000-12-25T10:54:58.000Z"}},"limit":50,"skip":300,"totalPages":7,"total":302,"currentPage":7,"maxWidth":1024,"maxHeight":512,"siteMetadata":null,"locale":"zh","hrefLang":"zh-Hans","originalPath":"/page/7","dateFormat":"YYYY-MM-DD"}},
    "staticQueryHashes": ["1239077767","2744905544","3025052997","3280999885"]}