{"componentChunkName":"component---node-modules-gatsby-theme-buzzing-src-gatsby-theme-timeline-templates-posts-query-js","path":"/en/tags/foodforthought/page/14","result":{"data":{"site":{"siteMetadata":{"title":"深度思考","description":"用中文浏览国外深度报道，思考和讨论","social":[{"name":"Food For Thought","url":"https://www.reddit.com/r/Foodforthought/","external":true,"prefetch":null},{"name":"True Reddit","url":"https://www.reddit.com/r/TrueReddit/","external":true,"prefetch":null},{"name":"Buzzing","url":"https://www.buzzing.cc/","external":true,"prefetch":null}],"menuLinks":[],"localize":[{"locale":"en","title":"Buzzing on In-depth thinking","description":"See what's buzzing on In-depth thinking in your native language","social":{"name":null,"url":null,"external":null,"prefetch":null},"menuLinks":[{"name":"Weekly Selection","url":"/issues","external":null,"prefetch":null}]},{"locale":"zh-Hant","title":"深度思考","description":"用中文瀏覽國外深度報導，思考和討論","social":null,"menuLinks":[]},{"locale":"ja","title":"深い思考人気の話し合います","description":"人気の深い思考記事を日本語で閲覧","social":null,"menuLinks":[]}]}},"tagsGroup":{"group":[{"fieldValue":"Design Tools","totalCount":1},{"fieldValue":"Foodforthought","totalCount":328},{"fieldValue":"ProductHunt","totalCount":1},{"fieldValue":"TrueReddit","totalCount":303},{"fieldValue":"Youtube","totalCount":1},{"fieldValue":"dankmemes","totalCount":1},{"fieldValue":"reddit","totalCount":632}]},"allBlogPost":{"nodes":[{"id":"RedditPost-588c8b9b-4abf-5786-b041-f592f296b35f","excerpt":"","slug":"/reddit/r/Foodforthought/comments/ktsg5o/golf_is_a_giant_board_game_damaging_the_planet/","title":"Golf is a giant board game damaging the planet: Time for it to go","date":"January 14, 2021","dateISO":"2021-01-14T21:42:03.000Z","datetime":"2021-01-14 21:42","tags":["Foodforthought","reddit"],"image":null,"imageAlt":null,"__typename":"SocialMediaPost","provider":"Reddit","thirdPartyId":"588c8b9b-4abf-5786-b041-f592f296b35f","url":"https://www.reddit.com/r/Foodforthought/comments/ktsg5o/golf_is_a_giant_board_game_damaging_the_planet/","originalUrl":"https://www.reddit.com/r/Foodforthought/comments/ktsg5o/golf_is_a_giant_board_game_damaging_the_planet/","imageRemote":null,"video":null,"channel":"Foodforthought","channelUrl":"https://www.reddit.com/r/Foodforthought","author":"2legit2fart","authorUrl":"https://www.reddit.com/user/2legit2fart","authorImage":null,"authorSlug":"2legit2fart","score":539,"views":null,"sharedCount":null,"likeCount":null,"sharedContent":null,"parent":{"localize":[{"title":"高尔夫是破坏地球的巨大棋牌游戏。是时候让它消失了","the_new_excerpt":null,"locale":"zh"},{"title":"高爾夫是破壞地球的巨大棋牌遊戲。是時候讓它消失了","the_new_excerpt":null,"locale":"zh-Hant"}]}},{"id":"RedditPost-43fd487e-9e48-5d87-b40d-34f411b3a9e4","excerpt":"","slug":"/reddit/r/Foodforthought/comments/ku4pif/these_black_capitol_police_officers_describe/","title":"These Black Capitol Police Officers Describe Fighting Off \"Racist Ass Terrorists\"","date":"January 14, 2021","dateISO":"2021-01-14T21:42:03.000Z","datetime":"2021-01-14 21:42","tags":["Foodforthought","reddit"],"image":null,"imageAlt":null,"__typename":"SocialMediaPost","provider":"Reddit","thirdPartyId":"43fd487e-9e48-5d87-b40d-34f411b3a9e4","url":"https://www.reddit.com/r/Foodforthought/comments/ku4pif/these_black_capitol_police_officers_describe/","originalUrl":"https://www.reddit.com/r/Foodforthought/comments/ku4pif/these_black_capitol_police_officers_describe/","imageRemote":null,"video":null,"channel":"Foodforthought","channelUrl":"https://www.reddit.com/r/Foodforthought","author":"Timbukthree","authorUrl":"https://www.reddit.com/user/Timbukthree","authorImage":null,"authorSlug":"Timbukthree","score":528,"views":null,"sharedCount":null,"likeCount":null,"sharedContent":null,"parent":{"localize":[{"title":"这些黑人首都警察描述对抗 \"种族主义混蛋恐怖分子\"","the_new_excerpt":null,"locale":"zh"},{"title":"這些黑人首都警察描述對抗 \"種族主義混蛋恐怖分子\"","the_new_excerpt":null,"locale":"zh-Hant"}]}},{"id":"RedditPost-2f2baacf-bcc1-556f-ab04-5984c09de241","excerpt":"","slug":"/reddit/r/Foodforthought/comments/kufdbn/wikipedia_is_20_and_its_reputation_has_never_been/","title":"Wikipedia is 20, and its reputation has never been higher","date":"January 14, 2021","dateISO":"2021-01-14T21:42:03.000Z","datetime":"2021-01-14 21:42","tags":["Foodforthought","reddit"],"image":null,"imageAlt":null,"__typename":"SocialMediaPost","provider":"Reddit","thirdPartyId":"2f2baacf-bcc1-556f-ab04-5984c09de241","url":"https://www.reddit.com/r/Foodforthought/comments/kufdbn/wikipedia_is_20_and_its_reputation_has_never_been/","originalUrl":"https://www.reddit.com/r/Foodforthought/comments/kufdbn/wikipedia_is_20_and_its_reputation_has_never_been/","imageRemote":null,"video":null,"channel":"Foodforthought","channelUrl":"https://www.reddit.com/r/Foodforthought","author":"Sumit316","authorUrl":"https://www.reddit.com/user/Sumit316","authorImage":null,"authorSlug":"Sumit316","score":874,"views":null,"sharedCount":null,"likeCount":null,"sharedContent":null,"parent":{"localize":[{"title":"维基百科是20，它的声誉从来没有这么高过。","the_new_excerpt":null,"locale":"zh"},{"title":"維基百科是20，它的聲譽從來沒有這麼高過。","the_new_excerpt":null,"locale":"zh-Hant"}]}}]}},"pageContext":{"basePath":"/","pageType":"tag","tag":"Foodforthought","tagsFilter":{"id":{"glob":"!*Post-1"}},"filter":{"id":{"glob":"!*Post-1"},"tags":{"eq":"Foodforthought"}},"limit":25,"skip":325,"total":328,"totalPages":14,"currentPage":14,"maxWidth":1024,"maxHeight":512,"locale":"en","hrefLang":"en-US","originalPath":"/tags/foodforthought/page/14","dateFormat":"MM/DD/YYYY"}},"staticQueryHashes":["1239077767","2506312863","2744905544","3025052997","3280999885","3948070931","68699025"]}