{"componentChunkName":"component---node-modules-gatsby-theme-buzzing-src-gatsby-theme-timeline-templates-posts-query-js","path":"/ja/tags/reddit/page/26","result":{"data":{"site":{"siteMetadata":{"title":"深度思考","description":"用中文浏览国外深度报道，思考和讨论","social":[{"name":"Food For Thought","url":"https://www.reddit.com/r/Foodforthought/","external":true,"prefetch":null},{"name":"True Reddit","url":"https://www.reddit.com/r/TrueReddit/","external":true,"prefetch":null},{"name":"Buzzing","url":"https://www.buzzing.cc/","external":true,"prefetch":null}],"menuLinks":[],"localize":[{"locale":"en","title":"Buzzing on In-depth thinking","description":"See what's buzzing on In-depth thinking in your native language","social":{"name":null,"url":null,"external":null,"prefetch":null},"menuLinks":[{"name":"Weekly Selection","url":"/issues","external":null,"prefetch":null}]},{"locale":"zh-Hant","title":"深度思考","description":"用中文瀏覽國外深度報導，思考和討論","social":null,"menuLinks":[]},{"locale":"ja","title":"深い思考人気の話し合います","description":"人気の深い思考記事を日本語で閲覧","social":null,"menuLinks":[]}]}},"tagsGroup":{"group":[{"fieldValue":"Design Tools","totalCount":1},{"fieldValue":"Foodforthought","totalCount":326},{"fieldValue":"ProductHunt","totalCount":1},{"fieldValue":"TrueReddit","totalCount":303},{"fieldValue":"Youtube","totalCount":1},{"fieldValue":"dankmemes","totalCount":1},{"fieldValue":"reddit","totalCount":630}]},"allBlogPost":{"nodes":[{"id":"RedditPost-b139af1b-5f89-52dc-9071-7015c71483f2","excerpt":"","slug":"/reddit/r/TrueReddit/comments/kr9uw0/a_brief_history_of_peanut_butter/","title":"A Brief History of Peanut Butter","date":"January 14, 2021","dateISO":"2021-01-14T21:42:03.000Z","datetime":"2021-01-14 21:42","tags":["TrueReddit","reddit"],"image":null,"imageAlt":"Reddit Image","__typename":"SocialMediaPost","provider":"Reddit","thirdPartyId":"b139af1b-5f89-52dc-9071-7015c71483f2","url":"https://www.reddit.com/r/TrueReddit/comments/kr9uw0/a_brief_history_of_peanut_butter/","originalUrl":"https://www.reddit.com/r/TrueReddit/comments/kr9uw0/a_brief_history_of_peanut_butter/","imageRemote":"https://external-preview.redd.it/jjT50kYwbz5tjjfJQly0XVQr1Yq4Wo5xycQFQ93zQeg.jpg?width=640&crop=smart&auto=webp&s=837dfb60a8aa58d1b049db2bc17ad24679ae1c15","video":null,"channel":"TrueReddit","channelUrl":"https://www.reddit.com/r/TrueReddit","author":"RalphSchmaccio","authorUrl":"https://www.reddit.com/user/RalphSchmaccio","authorImage":null,"authorSlug":"RalphSchmaccio","score":392,"views":null,"sharedCount":null,"likeCount":null,"sharedContent":null,"parent":{"localize":[{"title":"花生酱简史","the_new_excerpt":null,"locale":"zh"},{"title":"花生醬簡史","the_new_excerpt":null,"locale":"zh-Hant"}]}},{"id":"RedditPost-23abd137-937e-55e0-9e2f-0d24689eff0c","excerpt":"","slug":"/reddit/r/TrueReddit/comments/ktuzwj/they_spent_12_years_solving_a_puzzle_it_yielded/","title":"They spent 12 years solving a puzzle. It yielded the first COVID-19 vaccines.","date":"January 14, 2021","dateISO":"2021-01-14T21:42:03.000Z","datetime":"2021-01-14 21:42","tags":["TrueReddit","reddit"],"image":null,"imageAlt":"Reddit Image","__typename":"SocialMediaPost","provider":"Reddit","thirdPartyId":"23abd137-937e-55e0-9e2f-0d24689eff0c","url":"https://www.reddit.com/r/TrueReddit/comments/ktuzwj/they_spent_12_years_solving_a_puzzle_it_yielded/","originalUrl":"https://www.reddit.com/r/TrueReddit/comments/ktuzwj/they_spent_12_years_solving_a_puzzle_it_yielded/","imageRemote":"https://external-preview.redd.it/nVhlhxZ4uhZjKvWsIdezZCnAa4zZA4z6vcPlL7fZVJc.jpg?width=1080&crop=smart&auto=webp&s=a68c1abb3709296e76bf6c3b6f26b4baff18f1ab","video":null,"channel":"TrueReddit","channelUrl":"https://www.reddit.com/r/TrueReddit","author":"brucespringsteinfan","authorUrl":"https://www.reddit.com/user/brucespringsteinfan","authorImage":null,"authorSlug":"brucespringsteinfan","score":719,"views":null,"sharedCount":null,"likeCount":null,"sharedContent":null,"parent":{"localize":[{"title":"他们花了12年时间解决一个难题。它产生了第一批COVID-19疫苗。","the_new_excerpt":null,"locale":"zh"},{"title":"他們花了12年時間解決一個難題。它產生了第一批COVID-19疫苗。","the_new_excerpt":null,"locale":"zh-Hant"}]}},{"id":"RedditPost-68f9ecec-911a-5720-9f3f-bd52d3106f3d","excerpt":"","slug":"/reddit/r/TrueReddit/comments/kuei21/politics_would_be_less_crazy_if_voting_were/","title":"Politics Would Be Less Crazy If Voting Were Compulsory","date":"January 14, 2021","dateISO":"2021-01-14T21:42:03.000Z","datetime":"2021-01-14 21:42","tags":["TrueReddit","reddit"],"image":null,"imageAlt":"Reddit Image","__typename":"SocialMediaPost","provider":"Reddit","thirdPartyId":"68f9ecec-911a-5720-9f3f-bd52d3106f3d","url":"https://www.reddit.com/r/TrueReddit/comments/kuei21/politics_would_be_less_crazy_if_voting_were/","originalUrl":"https://www.reddit.com/r/TrueReddit/comments/kuei21/politics_would_be_less_crazy_if_voting_were/","imageRemote":"https://external-preview.redd.it/PApzNFfskGRTD86V8CRtPRrKl6wrVWhlRr_nuF5bjDg.jpg?width=960&crop=smart&auto=webp&s=84deaa36272520032674347c4dcc14f9b312bb25","video":null,"channel":"TrueReddit","channelUrl":"https://www.reddit.com/r/TrueReddit","author":"phileconomicus","authorUrl":"https://www.reddit.com/user/phileconomicus","authorImage":null,"authorSlug":"phileconomicus","score":1088,"views":null,"sharedCount":null,"likeCount":null,"sharedContent":null,"parent":{"localize":[{"title":"如果投票是强制性的，政治就不会那么疯狂。","the_new_excerpt":null,"locale":"zh"},{"title":"如果投票是強制性的，政治就不會那麼瘋狂。","the_new_excerpt":null,"locale":"zh-Hant"}]}},{"id":"RedditPost-2ef967f6-0326-533a-9e29-29e2a2c53bc7","excerpt":"","slug":"/reddit/r/TrueReddit/comments/kuyynv/the_us_has_a_lottery_problem_but_its_not_the/","title":"The U.S. has a lottery problem. But it’s not the people buying tickets.","date":"January 14, 2021","dateISO":"2021-01-14T21:42:03.000Z","datetime":"2021-01-14 21:42","tags":["TrueReddit","reddit"],"image":null,"imageAlt":"Reddit Image","__typename":"SocialMediaPost","provider":"Reddit","thirdPartyId":"2ef967f6-0326-533a-9e29-29e2a2c53bc7","url":"https://www.reddit.com/r/TrueReddit/comments/kuyynv/the_us_has_a_lottery_problem_but_its_not_the/","originalUrl":"https://www.reddit.com/r/TrueReddit/comments/kuyynv/the_us_has_a_lottery_problem_but_its_not_the/","imageRemote":"https://external-preview.redd.it/pFWQZrXmIP2WRzeslBryuax2m1ps2Yv8n7UdVpCVsY4.jpg?width=960&crop=smart&auto=webp&s=dcbb9aa3fc3a1632d5ada920eb201956f329b457","video":null,"channel":"TrueReddit","channelUrl":"https://www.reddit.com/r/TrueReddit","author":"RandomCollection","authorUrl":"https://www.reddit.com/user/RandomCollection","authorImage":null,"authorSlug":"RandomCollection","score":731,"views":null,"sharedCount":null,"likeCount":null,"sharedContent":null,"parent":{"localize":[{"title":"美国有一个彩票问题。但不是买彩票的人的问题。","the_new_excerpt":null,"locale":"zh"},{"title":"美國有一個彩票問題。但不是買彩票的人的問題。","the_new_excerpt":null,"locale":"zh-Hant"}]}},{"id":"RedditPost-795857d6-0088-52a6-a3d3-a90f1552c983","excerpt":"","slug":"/reddit/r/dankmemes/comments/kc0vb6/i_tried_my_best/","title":"I tried my best","date":"January 01, 1970","dateISO":"1970-01-01T00:00:01.000Z","datetime":"1970-01-01 00:00","tags":["dankmemes","reddit"],"image":null,"imageAlt":null,"__typename":"SocialMediaPost","provider":"Reddit","thirdPartyId":"795857d6-0088-52a6-a3d3-a90f1552c983","url":"https://www.reddit.com/r/dankmemes/comments/kc0vb6/i_tried_my_best/","originalUrl":"https://www.reddit.com/r/dankmemes/comments/kc0vb6/i_tried_my_best/","imageRemote":null,"video":{"url":"https://preview.redd.it/tmioy3ppqu461.gif?format=mp4&s=eee315f2afbf0b103ca25cb56dab4ca7ca9c7f77","embed":null,"width":530,"height":478},"channel":"dankmemes","channelUrl":"https://www.reddit.com/r/dankmemes","author":"tig02345","authorUrl":"https://www.reddit.com/user/tig02345","authorImage":null,"authorSlug":"tig02345","score":93756,"views":null,"sharedCount":null,"likeCount":null,"sharedContent":null,"parent":{"localize":[{"title":"我尽力了","the_new_excerpt":"test","locale":"zh"},{"title":"我盡力了","the_new_excerpt":"test","locale":"zh-Hant"}]}}]}},"pageContext":{"basePath":"/","pageType":"tag","tag":"reddit","tagsFilter":{"id":{"glob":"!*Post-1"}},"filter":{"id":{"glob":"!*Post-1"},"tags":{"eq":"reddit"}},"limit":25,"skip":625,"total":630,"totalPages":26,"currentPage":26,"maxWidth":1024,"maxHeight":512,"locale":"ja","hrefLang":"ja-JA","originalPath":"/tags/reddit/page/26","dateFormat":"YYYY-MM-DD"}},"staticQueryHashes":["1239077767","2506312863","2744905544","3025052997","3280999885","3948070931","68699025"]}