{"componentChunkName":"component---node-modules-gatsby-theme-buzzing-src-gatsby-theme-timeline-templates-posts-query-js","path":"/zh-Hant/page/26","result":{"data":{"site":{"siteMetadata":{"title":"深度思考","description":"用中文浏览国外深度报道，思考和讨论","social":[{"name":"Food For Thought","url":"https://www.reddit.com/r/Foodforthought/","external":true,"prefetch":null},{"name":"True Reddit","url":"https://www.reddit.com/r/TrueReddit/","external":true,"prefetch":null},{"name":"Buzzing","url":"https://www.buzzing.cc/","external":true,"prefetch":null}],"menuLinks":[],"localize":[{"locale":"en","title":"Buzzing on In-depth thinking","description":"See what's buzzing on In-depth thinking in your native language","social":{"name":null,"url":null,"external":null,"prefetch":null},"menuLinks":[{"name":"Weekly Selection","url":"/issues","external":null,"prefetch":null}]},{"locale":"zh-Hant","title":"深度思考","description":"用中文瀏覽國外深度報導，思考和討論","social":null,"menuLinks":[]},{"locale":"ja","title":"深い思考人気の話し合います","description":"人気の深い思考記事を日本語で閲覧","social":null,"menuLinks":[]}]}},"tagsGroup":{"group":[{"fieldValue":"Design Tools","totalCount":1},{"fieldValue":"Foodforthought","totalCount":321},{"fieldValue":"ProductHunt","totalCount":1},{"fieldValue":"TrueReddit","totalCount":303},{"fieldValue":"Youtube","totalCount":1},{"fieldValue":"dankmemes","totalCount":1},{"fieldValue":"reddit","totalCount":625}]},"allBlogPost":{"nodes":[{"id":"RedirectPost-a5915b95-2812-571e-8e3a-f5131515cda7","excerpt":"","slug":"/redirect/?url=https%3A%2F%2Fnews.google.com%2F__i%2Frss%2Frd%2Farticles%2FCBMiXmh0dHBzOi8vd3d3Lndzai5jb20vYXJ0aWNsZXMvd2hhdC1kb2VzLXRoZS1icmV4aXQtZGVhbC1tZWFuLWZvci1maW5hbmNpYWwtc2VydmljZXMtMTE2MDg4MzQwMjfSAWJodHRwczovL3d3dy53c2ouY29tL2FtcC9hcnRpY2xlcy93aGF0LWRvZXMtdGhlLWJyZXhpdC1kZWFsLW1lYW4tZm9yLWZpbmFuY2lhbC1zZXJ2aWNlcy0xMTYwODgzNDAyNw%3Foc%3D5","title":"What Does the Brexit Deal Mean for Financial Services?","date":"December 25, 1970","dateISO":"1970-12-25T10:45:56.551Z","datetime":"1970-12-25 10:45","tags":[],"image":null,"imageAlt":null,"__typename":"SocialMediaPost","provider":"Google News","thirdPartyId":null,"url":"https://news.google.com/__i/rss/rd/articles/CBMiXmh0dHBzOi8vd3d3Lndzai5jb20vYXJ0aWNsZXMvd2hhdC1kb2VzLXRoZS1icmV4aXQtZGVhbC1tZWFuLWZvci1maW5hbmNpYWwtc2VydmljZXMtMTE2MDg4MzQwMjfSAWJodHRwczovL3d3dy53c2ouY29tL2FtcC9hcnRpY2xlcy93aGF0LWRvZXMtdGhlLWJyZXhpdC1kZWFsLW1lYW4tZm9yLWZpbmFuY2lhbC1zZXJ2aWNlcy0xMTYwODgzNDAyNw?oc=5","originalUrl":"https://news.google.com/__i/rss/rd/articles/CBMiXmh0dHBzOi8vd3d3Lndzai5jb20vYXJ0aWNsZXMvd2hhdC1kb2VzLXRoZS1icmV4aXQtZGVhbC1tZWFuLWZvci1maW5hbmNpYWwtc2VydmljZXMtMTE2MDg4MzQwMjfSAWJodHRwczovL3d3dy53c2ouY29tL2FtcC9hcnRpY2xlcy93aGF0LWRvZXMtdGhlLWJyZXhpdC1kZWFsLW1lYW4tZm9yLWZpbmFuY2lhbC1zZXJ2aWNlcy0xMTYwODgzNDAyNw?oc=5","imageRemote":"https://sites.google.com/site/glinden/Home/IMG_6330.JPG","video":null,"channel":"The Wall Street Journal","channelUrl":"","author":null,"authorUrl":null,"authorImage":null,"authorSlug":null,"score":null,"views":null,"sharedCount":null,"likeCount":null,"sharedContent":null,"parent":{"localize":[{"title":"虚拟现实何时起飞？100美元的赌注","description":"","locale":"zh"},{"title":"虛擬現實何時起飛？100美元的賭注","description":"","locale":"zh-Hant"}]}},{"id":"PhPost-c02c84d5-619c-5115-b4c0-93037b8a39a4","excerpt":"A new release from the Artify crew featuring 5000+ unique illustrations available for download in high quality PNG files as well as vector sources, there are over 70 illustration styles from high quality 3D styles to minimalistic and abstract lines!","slug":"/ph/1","title":"Artify Illustrations - Search and download more than 5000 vector illustrations","date":"December 18, 1970","dateISO":"1970-12-18T08:47:54.485Z","datetime":"1970-12-18 08:47","tags":["Design Tools","ProductHunt"],"image":null,"imageAlt":null,"__typename":"SocialMediaPost","provider":"Product Hunt","thirdPartyId":"c02c84d5-619c-5115-b4c0-93037b8a39a4","url":"https://www.producthunt.com/posts/artify-illustrations?utm_campaign=producthunt-api&utm_medium=api-v2&utm_source=Application%3A+Buzzing+%28ID%3A+41381%29","originalUrl":"https://www.producthunt.com/r/2594b1797ea1f3?utm_campaign=producthunt-api&utm_medium=api-v2&utm_source=Application%3A+Buzzing+%28ID%3A+41381%29","imageRemote":"https://ph-files.imgix.net/16c84ca9-95b7-46bd-b70e-ee3ec5c717d2.png?auto=format&fit=crop","video":null,"channel":null,"channelUrl":null,"author":"Fajar Siddiq","authorUrl":"https://www.producthunt.com/@fajarsiddiq?utm_campaign=producthunt-api&utm_medium=api-v2&utm_source=Application%3A+Buzzing+%28ID%3A+41381%29","authorImage":null,"authorSlug":null,"score":461,"views":null,"sharedCount":null,"likeCount":null,"sharedContent":null,"parent":{"localize":[{"description":"虚拟现实何时起飞？100美元的赌注","tagline":"tag","locale":"zh"},{"description":"虛擬現實何時起飛？100美元的賭注","tagline":"tag","locale":"zh-Hant"}]}},{"id":"RedditPost-795857d6-0088-52a6-a3d3-a90f1552c983","excerpt":"","slug":"/reddit/r/dankmemes/comments/kc0vb6/i_tried_my_best/","title":"I tried my best","date":"January 01, 1970","dateISO":"1970-01-01T00:00:01.000Z","datetime":"1970-01-01 00:00","tags":["dankmemes","reddit"],"image":null,"imageAlt":null,"__typename":"SocialMediaPost","provider":"Reddit","thirdPartyId":"795857d6-0088-52a6-a3d3-a90f1552c983","url":"https://www.reddit.com/r/dankmemes/comments/kc0vb6/i_tried_my_best/","originalUrl":"https://www.reddit.com/r/dankmemes/comments/kc0vb6/i_tried_my_best/","imageRemote":null,"video":{"url":"https://preview.redd.it/tmioy3ppqu461.gif?format=mp4&s=eee315f2afbf0b103ca25cb56dab4ca7ca9c7f77","embed":null,"width":530,"height":478},"channel":"dankmemes","channelUrl":"https://www.reddit.com/r/dankmemes","author":"tig02345","authorUrl":"https://www.reddit.com/user/tig02345","authorImage":null,"authorSlug":"tig02345","score":93756,"views":null,"sharedCount":null,"likeCount":null,"sharedContent":null,"parent":{"localize":[{"title":"我尽力了","the_new_excerpt":"test","locale":"zh"},{"title":"我盡力了","the_new_excerpt":"test","locale":"zh-Hant"}]}}]}},"pageContext":{"basePath":"/","pageType":"home","tagsFilter":{"id":{"glob":"!*Post-1"}},"filter":{"id":{"glob":"!*Post-1"}},"limit":25,"skip":625,"totalPages":26,"total":628,"currentPage":26,"maxWidth":1024,"maxHeight":512,"locale":"zh-Hant","hrefLang":"zh-Hant","originalPath":"/page/26","dateFormat":"YYYY-MM-DD"}},"staticQueryHashes":["1239077767","2506312863","2744905544","3025052997","3280999885","3948070931","68699025"]}