{"componentChunkName":"component---node-modules-gatsby-theme-buzzing-src-gatsby-theme-timeline-templates-posts-query-js","path":"/page/26","result":{"data":{"site":{"siteMetadata":{"title":"深度思考","description":"用中文浏览国外深度报道，思考和讨论","social":[{"name":"Food For Thought","url":"https://www.reddit.com/r/Foodforthought/","external":true,"prefetch":null},{"name":"True Reddit","url":"https://www.reddit.com/r/TrueReddit/","external":true,"prefetch":null},{"name":"Buzzing","url":"https://www.buzzing.cc/","external":true,"prefetch":null}],"menuLinks":[],"localize":[{"locale":"en","title":"Buzzing on In-depth thinking","description":"See what's buzzing on In-depth thinking in your native language","social":{"name":null,"url":null,"external":null,"prefetch":null},"menuLinks":[{"name":"Weekly Selection","url":"/issues","external":null,"prefetch":null}]},{"locale":"zh-Hant","title":"深度思考","description":"用中文瀏覽國外深度報導，思考和討論","social":null,"menuLinks":[]},{"locale":"ja","title":"深い思考人気の話し合います","description":"人気の深い思考記事を日本語で閲覧","social":null,"menuLinks":[]}]}},"tagsGroup":{"group":[{"fieldValue":"Design Tools","totalCount":1},{"fieldValue":"Foodforthought","totalCount":334},{"fieldValue":"ProductHunt","totalCount":1},{"fieldValue":"TrueReddit","totalCount":305},{"fieldValue":"Youtube","totalCount":1},{"fieldValue":"dankmemes","totalCount":1},{"fieldValue":"reddit","totalCount":640}]},"allBlogPost":{"nodes":[{"id":"RedditPost-5ddceaf3-7a19-539e-a10e-88873e13766b","excerpt":"","slug":"/reddit/r/TrueReddit/comments/kjvo3h/what_happened_to_the_democrats_who_never_accepted/","title":"What Happened to the Democrats Who Never Accepted Bush’s Election","date":"January 14, 2021","dateISO":"2021-01-14T21:42:03.000Z","datetime":"2021-01-14 21:42","tags":["TrueReddit","reddit"],"image":null,"imageAlt":"Reddit Image","__typename":"SocialMediaPost","provider":"Reddit","thirdPartyId":"5ddceaf3-7a19-539e-a10e-88873e13766b","url":"https://www.reddit.com/r/TrueReddit/comments/kjvo3h/what_happened_to_the_democrats_who_never_accepted/","originalUrl":"https://www.reddit.com/r/TrueReddit/comments/kjvo3h/what_happened_to_the_democrats_who_never_accepted/","imageRemote":"https://external-preview.redd.it/uCHjQbbwASNcjvK5BKtUY6XfvqbLPwG332c3YrNBYbw.jpg?width=1080&crop=smart&auto=webp&s=57c1073c141ab998ec03157cca3e87298f95652d","video":null,"channel":"TrueReddit","channelUrl":"https://www.reddit.com/r/TrueReddit","author":"Sewblon","authorUrl":"https://www.reddit.com/user/Sewblon","authorImage":null,"authorSlug":"Sewblon","score":273,"views":null,"sharedCount":null,"likeCount":null,"sharedContent":null,"parent":{"localize":[{"title":"从来不接受布什选举的民主党人怎么了？","the_new_excerpt":null,"locale":"zh"},{"title":"從來不接受布什選舉的民主黨人怎麼了？","the_new_excerpt":null,"locale":"zh-Hant"}]}},{"id":"RedditPost-a39dcde2-3a27-5d92-a186-3fdc3a8737e3","excerpt":"","slug":"/reddit/r/TrueReddit/comments/kk4kcf/nobody_says_hi_in_san_francisco/","title":"Nobody says hi in San Francisco","date":"January 14, 2021","dateISO":"2021-01-14T21:42:03.000Z","datetime":"2021-01-14 21:42","tags":["TrueReddit","reddit"],"image":null,"imageAlt":"Reddit Image","__typename":"SocialMediaPost","provider":"Reddit","thirdPartyId":"a39dcde2-3a27-5d92-a186-3fdc3a8737e3","url":"https://www.reddit.com/r/TrueReddit/comments/kk4kcf/nobody_says_hi_in_san_francisco/","originalUrl":"https://www.reddit.com/r/TrueReddit/comments/kk4kcf/nobody_says_hi_in_san_francisco/","imageRemote":"https://external-preview.redd.it/xRRsPgrvQC0Wyld1YMy-yI8-g0pbgXmdrjxjr2OHvnY.jpg?width=640&crop=smart&auto=webp&s=7f0c77cde9291b72cf6d04a0ed01cd2edd8b70c9","video":null,"channel":"TrueReddit","channelUrl":"https://www.reddit.com/r/TrueReddit","author":"TommyAdagio","authorUrl":"https://www.reddit.com/user/TommyAdagio","authorImage":null,"authorSlug":"TommyAdagio","score":308,"views":null,"sharedCount":null,"likeCount":null,"sharedContent":null,"parent":{"localize":[{"title":"在旧金山没有人打招呼","the_new_excerpt":null,"locale":"zh"},{"title":"在舊金山沒有人打招呼","the_new_excerpt":null,"locale":"zh-Hant"}]}},{"id":"RedditPost-96d98e1f-2c31-5387-aefb-4b88509cbe7f","excerpt":"","slug":"/reddit/r/TrueReddit/comments/kkv5fo/i_called_everyone_in_jeffrey_epsteins_little/","title":"I Called Everyone in Jeffrey Epstein’s Little Black Book","date":"January 14, 2021","dateISO":"2021-01-14T21:42:03.000Z","datetime":"2021-01-14 21:42","tags":["TrueReddit","reddit"],"image":null,"imageAlt":"Reddit Image","__typename":"SocialMediaPost","provider":"Reddit","thirdPartyId":"96d98e1f-2c31-5387-aefb-4b88509cbe7f","url":"https://www.reddit.com/r/TrueReddit/comments/kkv5fo/i_called_everyone_in_jeffrey_epsteins_little/","originalUrl":"https://www.reddit.com/r/TrueReddit/comments/kkv5fo/i_called_everyone_in_jeffrey_epsteins_little/","imageRemote":"https://external-preview.redd.it/WgSe_odZgFXNMeHEiuzqWYPpF6Nh4l-uzJmdlZxnFt0.jpg?width=1080&crop=smart&auto=webp&s=e675349c1a19326a98b05a6e299560d30cb66745","video":null,"channel":"TrueReddit","channelUrl":"https://www.reddit.com/r/TrueReddit","author":"TommyAdagio","authorUrl":"https://www.reddit.com/user/TommyAdagio","authorImage":null,"authorSlug":"TommyAdagio","score":700,"views":null,"sharedCount":null,"likeCount":null,"sharedContent":null,"parent":{"localize":[{"title":"我在杰弗里-爱泼斯坦的《小黑书》中给大家打了电话。","the_new_excerpt":null,"locale":"zh"},{"title":"我在傑弗裏-愛潑斯坦的《小黑書》中給大家打了電話。","the_new_excerpt":null,"locale":"zh-Hant"}]}},{"id":"RedditPost-505d2d7b-7386-53d4-99ef-2cb9b2f953bd","excerpt":"","slug":"/reddit/r/TrueReddit/comments/klw6yh/the_very_real_totally_bizarre_bucatini_shortage/","title":"The Very Real, Totally Bizarre Bucatini Shortage of 2020","date":"January 14, 2021","dateISO":"2021-01-14T21:42:03.000Z","datetime":"2021-01-14 21:42","tags":["TrueReddit","reddit"],"image":null,"imageAlt":"Reddit Image","__typename":"SocialMediaPost","provider":"Reddit","thirdPartyId":"505d2d7b-7386-53d4-99ef-2cb9b2f953bd","url":"https://www.reddit.com/r/TrueReddit/comments/klw6yh/the_very_real_totally_bizarre_bucatini_shortage/","originalUrl":"https://www.reddit.com/r/TrueReddit/comments/klw6yh/the_very_real_totally_bizarre_bucatini_shortage/","imageRemote":"https://external-preview.redd.it/je_W7HJBsmBaAVAu7yKWwrz3mX03Pon3xwZIvBliOkE.jpg?width=1080&crop=smart&auto=webp&s=15c0a1b132c546b12d1a4d2243bd83c52adc10bb","video":null,"channel":"TrueReddit","channelUrl":"https://www.reddit.com/r/TrueReddit","author":"brianbogart","authorUrl":"https://www.reddit.com/user/brianbogart","authorImage":null,"authorSlug":"brianbogart","score":777,"views":null,"sharedCount":null,"likeCount":null,"sharedContent":null,"parent":{"localize":[{"title":"2020年非常真实的、完全离奇的青瓜短缺问题","the_new_excerpt":null,"locale":"zh"},{"title":"2020年非常真實的、完全離奇的青瓜短缺問題","the_new_excerpt":null,"locale":"zh-Hant"}]}},{"id":"RedditPost-dfd49778-aea0-5f04-8d0e-e8f08da8162b","excerpt":"","slug":"/reddit/r/TrueReddit/comments/kmttr9/watching_earth_burn/","title":"Watching Earth Burn","date":"January 14, 2021","dateISO":"2021-01-14T21:42:03.000Z","datetime":"2021-01-14 21:42","tags":["TrueReddit","reddit"],"image":null,"imageAlt":"Reddit Image","__typename":"SocialMediaPost","provider":"Reddit","thirdPartyId":"dfd49778-aea0-5f04-8d0e-e8f08da8162b","url":"https://www.reddit.com/r/TrueReddit/comments/kmttr9/watching_earth_burn/","originalUrl":"https://www.reddit.com/r/TrueReddit/comments/kmttr9/watching_earth_burn/","imageRemote":"https://external-preview.redd.it/FeLF-01KiCANaL65Hj2R9536TX_mte9nwYAk_PJcS6I.jpg?width=960&crop=smart&auto=webp&s=25d2b517edb53a19e0ca988a9e4de9c63fe54f86","video":null,"channel":"TrueReddit","channelUrl":"https://www.reddit.com/r/TrueReddit","author":"Hrodrik","authorUrl":"https://www.reddit.com/user/Hrodrik","authorImage":null,"authorSlug":"Hrodrik","score":338,"views":null,"sharedCount":null,"likeCount":null,"sharedContent":null,"parent":{"localize":[{"title":"看着地球燃烧","the_new_excerpt":null,"locale":"zh"},{"title":"看着地球燃燒","the_new_excerpt":null,"locale":"zh-Hant"}]}},{"id":"RedditPost-f7ef2a0c-9bc1-5347-a884-7af7144b216f","excerpt":"","slug":"/reddit/r/TrueReddit/comments/kn7tze/the_best_thing_about_the_queens_gambit_theres_no/","title":"The best thing about 'The Queen’s Gambit'? There’s no sexual violence in it.","date":"January 14, 2021","dateISO":"2021-01-14T21:42:03.000Z","datetime":"2021-01-14 21:42","tags":["TrueReddit","reddit"],"image":null,"imageAlt":"Reddit Image","__typename":"SocialMediaPost","provider":"Reddit","thirdPartyId":"f7ef2a0c-9bc1-5347-a884-7af7144b216f","url":"https://www.reddit.com/r/TrueReddit/comments/kn7tze/the_best_thing_about_the_queens_gambit_theres_no/","originalUrl":"https://www.reddit.com/r/TrueReddit/comments/kn7tze/the_best_thing_about_the_queens_gambit_theres_no/","imageRemote":"https://external-preview.redd.it/KcLqIuhEld5CNE_wGGgEgsJmXGqpDKXzw2zVKIsbQHI.jpg?width=640&crop=smart&auto=webp&s=268f76ec2e925f126f973a88b746c7ac40b50445","video":null,"channel":"TrueReddit","channelUrl":"https://www.reddit.com/r/TrueReddit","author":"horthorj","authorUrl":"https://www.reddit.com/user/horthorj","authorImage":null,"authorSlug":"horthorj","score":1733,"views":null,"sharedCount":null,"likeCount":null,"sharedContent":null,"parent":{"localize":[{"title":"《女王的赌注》最好的地方是什么？里面没有性暴力","the_new_excerpt":null,"locale":"zh"},{"title":"《女王的賭注》最好的地方是什麼？裏面沒有性暴力","the_new_excerpt":null,"locale":"zh-Hant"}]}},{"id":"RedditPost-90406400-f156-543c-9991-b67031065a20","excerpt":"","slug":"/reddit/r/TrueReddit/comments/kou37p/the_jungle_prince_of_delhi/","title":"The Jungle Prince of Delhi","date":"January 14, 2021","dateISO":"2021-01-14T21:42:03.000Z","datetime":"2021-01-14 21:42","tags":["TrueReddit","reddit"],"image":null,"imageAlt":"Reddit Image","__typename":"SocialMediaPost","provider":"Reddit","thirdPartyId":"90406400-f156-543c-9991-b67031065a20","url":"https://www.reddit.com/r/TrueReddit/comments/kou37p/the_jungle_prince_of_delhi/","originalUrl":"https://www.reddit.com/r/TrueReddit/comments/kou37p/the_jungle_prince_of_delhi/","imageRemote":"https://external-preview.redd.it/AVd69Cw7shpBh7UZ7UmKH93PSEdzrV0bzm73qF6uARg.jpg?width=960&crop=smart&auto=webp&s=353d7ae6438cb36e9625657ccfb22b2e0ad163cb","video":null,"channel":"TrueReddit","channelUrl":"https://www.reddit.com/r/TrueReddit","author":"EddieEhlriCh","authorUrl":"https://www.reddit.com/user/EddieEhlriCh","authorImage":null,"authorSlug":"EddieEhlriCh","score":268,"views":null,"sharedCount":null,"likeCount":null,"sharedContent":null,"parent":{"localize":[{"title":"德里的丛林王子","the_new_excerpt":null,"locale":"zh"},{"title":"德里的叢林王子","the_new_excerpt":null,"locale":"zh-Hant"}]}},{"id":"RedditPost-97265db6-5abf-5065-94da-3e0849404d0e","excerpt":"","slug":"/reddit/r/TrueReddit/comments/kp46cr/the_us_finally_has_a_system_to_prevent_deadly/","title":"The U.S. finally has a system to prevent deadly rail accidents. It took 50 years.","date":"January 14, 2021","dateISO":"2021-01-14T21:42:03.000Z","datetime":"2021-01-14 21:42","tags":["TrueReddit","reddit"],"image":null,"imageAlt":"Reddit Image","__typename":"SocialMediaPost","provider":"Reddit","thirdPartyId":"97265db6-5abf-5065-94da-3e0849404d0e","url":"https://www.reddit.com/r/TrueReddit/comments/kp46cr/the_us_finally_has_a_system_to_prevent_deadly/","originalUrl":"https://www.reddit.com/r/TrueReddit/comments/kp46cr/the_us_finally_has_a_system_to_prevent_deadly/","imageRemote":"https://external-preview.redd.it/97jnMA-7qJ6EOTE7h4BL5f3EjJrlSHSQELWASzxMOBc.jpg?width=1080&crop=smart&auto=webp&s=6b5ba0cf05dcc86d43ff2d9dd7c339c2af865ff2","video":null,"channel":"TrueReddit","channelUrl":"https://www.reddit.com/r/TrueReddit","author":"huyvanbin","authorUrl":"https://www.reddit.com/user/huyvanbin","authorImage":null,"authorSlug":"huyvanbin","score":925,"views":null,"sharedCount":null,"likeCount":null,"sharedContent":null,"parent":{"localize":[{"title":"美国终于有了一套防止致命铁路事故的系统。这花了50年时间。","the_new_excerpt":null,"locale":"zh"},{"title":"美國終於有了一套防止致命鐵路事故的系統。這花了50年時間。","the_new_excerpt":null,"locale":"zh-Hant"}]}},{"id":"RedditPost-87edad36-d10b-5dbe-8b90-b8a31df2eb04","excerpt":"","slug":"/reddit/r/TrueReddit/comments/kprs1w/a_journey_inside_the_worlds_most_mysterious_cave/","title":"A Journey Inside the World's Most Mysterious Cave","date":"January 14, 2021","dateISO":"2021-01-14T21:42:03.000Z","datetime":"2021-01-14 21:42","tags":["TrueReddit","reddit"],"image":null,"imageAlt":"Reddit Image","__typename":"SocialMediaPost","provider":"Reddit","thirdPartyId":"87edad36-d10b-5dbe-8b90-b8a31df2eb04","url":"https://www.reddit.com/r/TrueReddit/comments/kprs1w/a_journey_inside_the_worlds_most_mysterious_cave/","originalUrl":"https://www.reddit.com/r/TrueReddit/comments/kprs1w/a_journey_inside_the_worlds_most_mysterious_cave/","imageRemote":"https://external-preview.redd.it/IVjOyAAIjaLozBJrG9DSfHBHXT_N-eGgP7qGzwRXv9s.jpg?width=1080&crop=smart&auto=webp&s=3235bb68f1c28a681637d956f839e21b5bd6dffe","video":null,"channel":"TrueReddit","channelUrl":"https://www.reddit.com/r/TrueReddit","author":"l_hazlewoods","authorUrl":"https://www.reddit.com/user/l_hazlewoods","authorImage":null,"authorSlug":"l_hazlewoods","score":207,"views":null,"sharedCount":null,"likeCount":null,"sharedContent":null,"parent":{"localize":[{"title":"世界上最神秘的洞穴之旅","the_new_excerpt":null,"locale":"zh"},{"title":"世界上最神祕的洞穴之旅","the_new_excerpt":null,"locale":"zh-Hant"}]}},{"id":"RedditPost-8c9d5d43-2acb-5e0f-8304-d866be27b221","excerpt":"","slug":"/reddit/r/TrueReddit/comments/kq90l9/the_myth_of_the_alpha_male/","title":"The Myth of the Alpha Male","date":"January 14, 2021","dateISO":"2021-01-14T21:42:03.000Z","datetime":"2021-01-14 21:42","tags":["TrueReddit","reddit"],"image":null,"imageAlt":"Reddit Image","__typename":"SocialMediaPost","provider":"Reddit","thirdPartyId":"8c9d5d43-2acb-5e0f-8304-d866be27b221","url":"https://www.reddit.com/r/TrueReddit/comments/kq90l9/the_myth_of_the_alpha_male/","originalUrl":"https://www.reddit.com/r/TrueReddit/comments/kq90l9/the_myth_of_the_alpha_male/","imageRemote":"https://external-preview.redd.it/Bk5TMTC6PBttbIvz22K8FIPvKrOZmHHCpTGcaMn5peU.jpg?width=216&crop=smart&auto=webp&s=2820919db7083232aee560d174c8a02b02a01220","video":null,"channel":"TrueReddit","channelUrl":"https://www.reddit.com/r/TrueReddit","author":"PenisShapedSilencer","authorUrl":"https://www.reddit.com/user/PenisShapedSilencer","authorImage":null,"authorSlug":"PenisShapedSilencer","score":474,"views":null,"sharedCount":null,"likeCount":null,"sharedContent":null,"parent":{"localize":[{"title":"阿尔法男性的神话","the_new_excerpt":null,"locale":"zh"},{"title":"阿爾法男性的神話","the_new_excerpt":null,"locale":"zh-Hant"}]}},{"id":"RedditPost-b139af1b-5f89-52dc-9071-7015c71483f2","excerpt":"","slug":"/reddit/r/TrueReddit/comments/kr9uw0/a_brief_history_of_peanut_butter/","title":"A Brief History of Peanut Butter","date":"January 14, 2021","dateISO":"2021-01-14T21:42:03.000Z","datetime":"2021-01-14 21:42","tags":["TrueReddit","reddit"],"image":null,"imageAlt":"Reddit Image","__typename":"SocialMediaPost","provider":"Reddit","thirdPartyId":"b139af1b-5f89-52dc-9071-7015c71483f2","url":"https://www.reddit.com/r/TrueReddit/comments/kr9uw0/a_brief_history_of_peanut_butter/","originalUrl":"https://www.reddit.com/r/TrueReddit/comments/kr9uw0/a_brief_history_of_peanut_butter/","imageRemote":"https://external-preview.redd.it/jjT50kYwbz5tjjfJQly0XVQr1Yq4Wo5xycQFQ93zQeg.jpg?width=640&crop=smart&auto=webp&s=837dfb60a8aa58d1b049db2bc17ad24679ae1c15","video":null,"channel":"TrueReddit","channelUrl":"https://www.reddit.com/r/TrueReddit","author":"RalphSchmaccio","authorUrl":"https://www.reddit.com/user/RalphSchmaccio","authorImage":null,"authorSlug":"RalphSchmaccio","score":392,"views":null,"sharedCount":null,"likeCount":null,"sharedContent":null,"parent":{"localize":[{"title":"花生酱简史","the_new_excerpt":null,"locale":"zh"},{"title":"花生醬簡史","the_new_excerpt":null,"locale":"zh-Hant"}]}},{"id":"RedditPost-23abd137-937e-55e0-9e2f-0d24689eff0c","excerpt":"","slug":"/reddit/r/TrueReddit/comments/ktuzwj/they_spent_12_years_solving_a_puzzle_it_yielded/","title":"They spent 12 years solving a puzzle. It yielded the first COVID-19 vaccines.","date":"January 14, 2021","dateISO":"2021-01-14T21:42:03.000Z","datetime":"2021-01-14 21:42","tags":["TrueReddit","reddit"],"image":null,"imageAlt":"Reddit Image","__typename":"SocialMediaPost","provider":"Reddit","thirdPartyId":"23abd137-937e-55e0-9e2f-0d24689eff0c","url":"https://www.reddit.com/r/TrueReddit/comments/ktuzwj/they_spent_12_years_solving_a_puzzle_it_yielded/","originalUrl":"https://www.reddit.com/r/TrueReddit/comments/ktuzwj/they_spent_12_years_solving_a_puzzle_it_yielded/","imageRemote":"https://external-preview.redd.it/nVhlhxZ4uhZjKvWsIdezZCnAa4zZA4z6vcPlL7fZVJc.jpg?width=1080&crop=smart&auto=webp&s=a68c1abb3709296e76bf6c3b6f26b4baff18f1ab","video":null,"channel":"TrueReddit","channelUrl":"https://www.reddit.com/r/TrueReddit","author":"brucespringsteinfan","authorUrl":"https://www.reddit.com/user/brucespringsteinfan","authorImage":null,"authorSlug":"brucespringsteinfan","score":719,"views":null,"sharedCount":null,"likeCount":null,"sharedContent":null,"parent":{"localize":[{"title":"他们花了12年时间解决一个难题。它产生了第一批COVID-19疫苗。","the_new_excerpt":null,"locale":"zh"},{"title":"他們花了12年時間解決一個難題。它產生了第一批COVID-19疫苗。","the_new_excerpt":null,"locale":"zh-Hant"}]}},{"id":"RedditPost-68f9ecec-911a-5720-9f3f-bd52d3106f3d","excerpt":"","slug":"/reddit/r/TrueReddit/comments/kuei21/politics_would_be_less_crazy_if_voting_were/","title":"Politics Would Be Less Crazy If Voting Were Compulsory","date":"January 14, 2021","dateISO":"2021-01-14T21:42:03.000Z","datetime":"2021-01-14 21:42","tags":["TrueReddit","reddit"],"image":null,"imageAlt":"Reddit Image","__typename":"SocialMediaPost","provider":"Reddit","thirdPartyId":"68f9ecec-911a-5720-9f3f-bd52d3106f3d","url":"https://www.reddit.com/r/TrueReddit/comments/kuei21/politics_would_be_less_crazy_if_voting_were/","originalUrl":"https://www.reddit.com/r/TrueReddit/comments/kuei21/politics_would_be_less_crazy_if_voting_were/","imageRemote":"https://external-preview.redd.it/PApzNFfskGRTD86V8CRtPRrKl6wrVWhlRr_nuF5bjDg.jpg?width=960&crop=smart&auto=webp&s=84deaa36272520032674347c4dcc14f9b312bb25","video":null,"channel":"TrueReddit","channelUrl":"https://www.reddit.com/r/TrueReddit","author":"phileconomicus","authorUrl":"https://www.reddit.com/user/phileconomicus","authorImage":null,"authorSlug":"phileconomicus","score":1088,"views":null,"sharedCount":null,"likeCount":null,"sharedContent":null,"parent":{"localize":[{"title":"如果投票是强制性的，政治就不会那么疯狂。","the_new_excerpt":null,"locale":"zh"},{"title":"如果投票是強制性的，政治就不會那麼瘋狂。","the_new_excerpt":null,"locale":"zh-Hant"}]}},{"id":"RedditPost-2ef967f6-0326-533a-9e29-29e2a2c53bc7","excerpt":"","slug":"/reddit/r/TrueReddit/comments/kuyynv/the_us_has_a_lottery_problem_but_its_not_the/","title":"The U.S. has a lottery problem. But it’s not the people buying tickets.","date":"January 14, 2021","dateISO":"2021-01-14T21:42:03.000Z","datetime":"2021-01-14 21:42","tags":["TrueReddit","reddit"],"image":null,"imageAlt":"Reddit Image","__typename":"SocialMediaPost","provider":"Reddit","thirdPartyId":"2ef967f6-0326-533a-9e29-29e2a2c53bc7","url":"https://www.reddit.com/r/TrueReddit/comments/kuyynv/the_us_has_a_lottery_problem_but_its_not_the/","originalUrl":"https://www.reddit.com/r/TrueReddit/comments/kuyynv/the_us_has_a_lottery_problem_but_its_not_the/","imageRemote":"https://external-preview.redd.it/pFWQZrXmIP2WRzeslBryuax2m1ps2Yv8n7UdVpCVsY4.jpg?width=960&crop=smart&auto=webp&s=dcbb9aa3fc3a1632d5ada920eb201956f329b457","video":null,"channel":"TrueReddit","channelUrl":"https://www.reddit.com/r/TrueReddit","author":"RandomCollection","authorUrl":"https://www.reddit.com/user/RandomCollection","authorImage":null,"authorSlug":"RandomCollection","score":731,"views":null,"sharedCount":null,"likeCount":null,"sharedContent":null,"parent":{"localize":[{"title":"美国有一个彩票问题。但不是买彩票的人的问题。","the_new_excerpt":null,"locale":"zh"},{"title":"美國有一個彩票問題。但不是買彩票的人的問題。","the_new_excerpt":null,"locale":"zh-Hant"}]}},{"id":"YoutubePost-2a694fc8-4add-56f6-95b1-f32e78af683a","excerpt":"Listen on Apple Music: https://apple.co/3mPpiPJ\nA film by Konstantin x Guy. \nThe sequel to ‘Killa Killa feat. Aiyana Lee (Part I)’ is here. \nKSI unveils the next chapter of the action packed short film with new visuals for ‘Domain’ \n(Warning: Video contains expletives and scenes of violence). \nTHIS IS NOT REAL LIFE FAM","slug":"/youtube/1","title":"KSI - DOMAIN","date":"December 26, 1970","dateISO":"1970-12-26T07:31:56.557Z","datetime":"1970-12-26 07:31","tags":["Youtube"],"image":null,"imageAlt":null,"__typename":"SocialMediaPost","provider":"Youtube","thirdPartyId":"1","url":"https://www.youtube.com/watch?v=0AKNxqOT8hw","originalUrl":null,"imageRemote":"https://i1.ytimg.com/vi/0AKNxqOT8hw/hqdefault.jpg","video":{"url":"https://www.youtube.com/watch?v=0AKNxqOT8hw","embed":null,"width":null,"height":null},"channel":null,"channelUrl":"https://www.youtube.com/channel/UCVtFOytbRpEvzLjvqGG5gxQ","author":"KSI","authorUrl":null,"authorImage":null,"authorSlug":null,"score":298129,"views":1761684,"sharedCount":null,"likeCount":null,"sharedContent":null,"parent":{"localize":[{"title":"KSI-域","description":"收听苹果音乐：https://apple.co/3mPpiPJ\n康斯坦丁x盖伊的电影。\n“基拉·基拉壮举”的续集。艾雅娜·李(第一部分)来了。\nKSI用新的视觉效果揭开了动作短片的下一个篇章“领域”(Domain)的面纱\n(警告：视频包含咒骂和暴力场面)。\n这不是现实生活中的FAM","locale":"zh"},{"title":"KSI-域","description":"收聽蘋果音樂：https://apple.co/3mPpiPJ\n康斯坦丁x蓋伊的電影。\n“基拉·基拉壯舉”的續集。艾雅娜·李(第一部分)來了。\nKSI用新的視覺效果揭開了動作短片的下一個篇章“領域”(Domain)的面紗\n(警告：視頻包含咒罵和暴力場面)。\n這不是現實生活中的FAM","locale":"zh-Hant"}]}},{"id":"RedirectPost-a5915b95-2812-571e-8e3a-f5131515cda7","excerpt":"","slug":"/redirect/?url=https%3A%2F%2Fnews.google.com%2F__i%2Frss%2Frd%2Farticles%2FCBMiXmh0dHBzOi8vd3d3Lndzai5jb20vYXJ0aWNsZXMvd2hhdC1kb2VzLXRoZS1icmV4aXQtZGVhbC1tZWFuLWZvci1maW5hbmNpYWwtc2VydmljZXMtMTE2MDg4MzQwMjfSAWJodHRwczovL3d3dy53c2ouY29tL2FtcC9hcnRpY2xlcy93aGF0LWRvZXMtdGhlLWJyZXhpdC1kZWFsLW1lYW4tZm9yLWZpbmFuY2lhbC1zZXJ2aWNlcy0xMTYwODgzNDAyNw%3Foc%3D5","title":"What Does the Brexit Deal Mean for Financial Services?","date":"December 25, 1970","dateISO":"1970-12-25T10:45:56.551Z","datetime":"1970-12-25 10:45","tags":[],"image":null,"imageAlt":null,"__typename":"SocialMediaPost","provider":"Google News","thirdPartyId":null,"url":"https://news.google.com/__i/rss/rd/articles/CBMiXmh0dHBzOi8vd3d3Lndzai5jb20vYXJ0aWNsZXMvd2hhdC1kb2VzLXRoZS1icmV4aXQtZGVhbC1tZWFuLWZvci1maW5hbmNpYWwtc2VydmljZXMtMTE2MDg4MzQwMjfSAWJodHRwczovL3d3dy53c2ouY29tL2FtcC9hcnRpY2xlcy93aGF0LWRvZXMtdGhlLWJyZXhpdC1kZWFsLW1lYW4tZm9yLWZpbmFuY2lhbC1zZXJ2aWNlcy0xMTYwODgzNDAyNw?oc=5","originalUrl":"https://news.google.com/__i/rss/rd/articles/CBMiXmh0dHBzOi8vd3d3Lndzai5jb20vYXJ0aWNsZXMvd2hhdC1kb2VzLXRoZS1icmV4aXQtZGVhbC1tZWFuLWZvci1maW5hbmNpYWwtc2VydmljZXMtMTE2MDg4MzQwMjfSAWJodHRwczovL3d3dy53c2ouY29tL2FtcC9hcnRpY2xlcy93aGF0LWRvZXMtdGhlLWJyZXhpdC1kZWFsLW1lYW4tZm9yLWZpbmFuY2lhbC1zZXJ2aWNlcy0xMTYwODgzNDAyNw?oc=5","imageRemote":"https://sites.google.com/site/glinden/Home/IMG_6330.JPG","video":null,"channel":"The Wall Street Journal","channelUrl":"","author":null,"authorUrl":null,"authorImage":null,"authorSlug":null,"score":null,"views":null,"sharedCount":null,"likeCount":null,"sharedContent":null,"parent":{"localize":[{"title":"虚拟现实何时起飞？100美元的赌注","description":"","locale":"zh"},{"title":"虛擬現實何時起飛？100美元的賭注","description":"","locale":"zh-Hant"}]}},{"id":"PhPost-c02c84d5-619c-5115-b4c0-93037b8a39a4","excerpt":"A new release from the Artify crew featuring 5000+ unique illustrations available for download in high quality PNG files as well as vector sources, there are over 70 illustration styles from high quality 3D styles to minimalistic and abstract lines!","slug":"/ph/1","title":"Artify Illustrations - Search and download more than 5000 vector illustrations","date":"December 18, 1970","dateISO":"1970-12-18T08:47:54.485Z","datetime":"1970-12-18 08:47","tags":["Design Tools","ProductHunt"],"image":null,"imageAlt":null,"__typename":"SocialMediaPost","provider":"Product Hunt","thirdPartyId":"c02c84d5-619c-5115-b4c0-93037b8a39a4","url":"https://www.producthunt.com/posts/artify-illustrations?utm_campaign=producthunt-api&utm_medium=api-v2&utm_source=Application%3A+Buzzing+%28ID%3A+41381%29","originalUrl":"https://www.producthunt.com/r/2594b1797ea1f3?utm_campaign=producthunt-api&utm_medium=api-v2&utm_source=Application%3A+Buzzing+%28ID%3A+41381%29","imageRemote":"https://ph-files.imgix.net/16c84ca9-95b7-46bd-b70e-ee3ec5c717d2.png?auto=format&fit=crop","video":null,"channel":null,"channelUrl":null,"author":"Fajar Siddiq","authorUrl":"https://www.producthunt.com/@fajarsiddiq?utm_campaign=producthunt-api&utm_medium=api-v2&utm_source=Application%3A+Buzzing+%28ID%3A+41381%29","authorImage":null,"authorSlug":null,"score":461,"views":null,"sharedCount":null,"likeCount":null,"sharedContent":null,"parent":{"localize":[{"description":"虚拟现实何时起飞？100美元的赌注","tagline":"tag","locale":"zh"},{"description":"虛擬現實何時起飛？100美元的賭注","tagline":"tag","locale":"zh-Hant"}]}},{"id":"RedditPost-795857d6-0088-52a6-a3d3-a90f1552c983","excerpt":"","slug":"/reddit/r/dankmemes/comments/kc0vb6/i_tried_my_best/","title":"I tried my best","date":"January 01, 1970","dateISO":"1970-01-01T00:00:01.000Z","datetime":"1970-01-01 00:00","tags":["dankmemes","reddit"],"image":null,"imageAlt":null,"__typename":"SocialMediaPost","provider":"Reddit","thirdPartyId":"795857d6-0088-52a6-a3d3-a90f1552c983","url":"https://www.reddit.com/r/dankmemes/comments/kc0vb6/i_tried_my_best/","originalUrl":"https://www.reddit.com/r/dankmemes/comments/kc0vb6/i_tried_my_best/","imageRemote":null,"video":{"url":"https://preview.redd.it/tmioy3ppqu461.gif?format=mp4&s=eee315f2afbf0b103ca25cb56dab4ca7ca9c7f77","embed":null,"width":530,"height":478},"channel":"dankmemes","channelUrl":"https://www.reddit.com/r/dankmemes","author":"tig02345","authorUrl":"https://www.reddit.com/user/tig02345","authorImage":null,"authorSlug":"tig02345","score":93756,"views":null,"sharedCount":null,"likeCount":null,"sharedContent":null,"parent":{"localize":[{"title":"我尽力了","the_new_excerpt":"test","locale":"zh"},{"title":"我盡力了","the_new_excerpt":"test","locale":"zh-Hant"}]}}]}},"pageContext":{"basePath":"/","pageType":"home","tagsFilter":{"id":{"glob":"!*Post-1"}},"filter":{"id":{"glob":"!*Post-1"}},"limit":25,"skip":625,"totalPages":26,"total":643,"currentPage":26,"maxWidth":1024,"maxHeight":512,"locale":"zh","hrefLang":"zh-Hans","originalPath":"/page/26","dateFormat":"YYYY-MM-DD"}},"staticQueryHashes":["1239077767","2506312863","2744905544","3025052997","3280999885","3948070931","68699025"]}