{"componentChunkName":"component---node-modules-gatsby-theme-buzzing-src-gatsby-theme-timeline-templates-posts-query-js","path":"/ja/tags/foodforthought/page/14","result":{"data":{"site":{"siteMetadata":{"title":"深度思考","description":"用中文浏览国外深度报道，思考和讨论","social":[{"name":"Food For Thought","url":"https://www.reddit.com/r/Foodforthought/","external":true,"prefetch":null},{"name":"True Reddit","url":"https://www.reddit.com/r/TrueReddit/","external":true,"prefetch":null},{"name":"Buzzing","url":"https://www.buzzing.cc/","external":true,"prefetch":null}],"menuLinks":[],"localize":[{"locale":"en","title":"Buzzing on In-depth thinking","description":"See what's buzzing on In-depth thinking in your native language","social":{"name":null,"url":null,"external":null,"prefetch":null},"menuLinks":[{"name":"Weekly Selection","url":"/issues","external":null,"prefetch":null}]},{"locale":"zh-Hant","title":"深度思考","description":"用中文瀏覽國外深度報導，思考和討論","social":null,"menuLinks":[]},{"locale":"ja","title":"深い思考人気の話し合います","description":"人気の深い思考記事を日本語で閲覧","social":null,"menuLinks":[]}]}},"tagsGroup":{"group":[{"fieldValue":"Design Tools","totalCount":1},{"fieldValue":"Foodforthought","totalCount":332},{"fieldValue":"ProductHunt","totalCount":1},{"fieldValue":"TrueReddit","totalCount":305},{"fieldValue":"Youtube","totalCount":1},{"fieldValue":"dankmemes","totalCount":1},{"fieldValue":"reddit","totalCount":638}]},"allBlogPost":{"nodes":[{"id":"RedditPost-2fd57501-00d5-59cf-a365-e550c368d8af","excerpt":"","slug":"/reddit/r/Foodforthought/comments/kqymm3/paychecktopaycheck_nation_why_even_americans_with/","title":"Paycheck-To-Paycheck Nation: Why Even Americans With Higher Income Struggle With Bills","date":"January 14, 2021","dateISO":"2021-01-14T21:42:03.000Z","datetime":"2021-01-14 21:42","tags":["Foodforthought","reddit"],"image":null,"imageAlt":null,"__typename":"SocialMediaPost","provider":"Reddit","thirdPartyId":"2fd57501-00d5-59cf-a365-e550c368d8af","url":"https://www.reddit.com/r/Foodforthought/comments/kqymm3/paychecktopaycheck_nation_why_even_americans_with/","originalUrl":"https://www.reddit.com/r/Foodforthought/comments/kqymm3/paychecktopaycheck_nation_why_even_americans_with/","imageRemote":null,"video":null,"channel":"Foodforthought","channelUrl":"https://www.reddit.com/r/Foodforthought","author":"speckz","authorUrl":"https://www.reddit.com/user/speckz","authorImage":null,"authorSlug":"speckz","score":653,"views":null,"sharedCount":null,"likeCount":null,"sharedContent":null,"parent":{"localize":[{"title":"薪资到薪水的国家。为什么即使是收入较高的美国人也会在账单上挣扎？","the_new_excerpt":null,"locale":"zh"},{"title":"薪資到薪水的國家。爲什麼即使是收入較高的美國人也會在賬單上掙扎？","the_new_excerpt":null,"locale":"zh-Hant"}]}},{"id":"RedditPost-2b4392b9-bc12-57cd-8129-4d0f88a1b17a","excerpt":"","slug":"/reddit/r/Foodforthought/comments/krm0eu/why_facebook_is_bad_twitter_might_be_a_little_bit/","title":"Why Facebook Is Bad, Twitter Might Be a Little Bit Good, and Social Media Is Rotting Our Brains","date":"January 14, 2021","dateISO":"2021-01-14T21:42:03.000Z","datetime":"2021-01-14 21:42","tags":["Foodforthought","reddit"],"image":null,"imageAlt":null,"__typename":"SocialMediaPost","provider":"Reddit","thirdPartyId":"2b4392b9-bc12-57cd-8129-4d0f88a1b17a","url":"https://www.reddit.com/r/Foodforthought/comments/krm0eu/why_facebook_is_bad_twitter_might_be_a_little_bit/","originalUrl":"https://www.reddit.com/r/Foodforthought/comments/krm0eu/why_facebook_is_bad_twitter_might_be_a_little_bit/","imageRemote":null,"video":null,"channel":"Foodforthought","channelUrl":"https://www.reddit.com/r/Foodforthought","author":"m_Pony","authorUrl":"https://www.reddit.com/user/m_Pony","authorImage":null,"authorSlug":"m_Pony","score":628,"views":null,"sharedCount":null,"likeCount":null,"sharedContent":null,"parent":{"localize":[{"title":"为什么Facebook不好，Twitter可能有点好，社交媒体正在腐烂我们的大脑？","the_new_excerpt":null,"locale":"zh"},{"title":"爲什麼Facebook不好，Twitter可能有點好，社交媒體正在腐爛我們的大腦？","the_new_excerpt":null,"locale":"zh-Hant"}]}},{"id":"RedditPost-78a38983-acb7-5875-96ff-892cc2414845","excerpt":"","slug":"/reddit/r/Foodforthought/comments/ks94ik/a_lifetime_of_torture_the_story_of_the_woman/","title":"‘A lifetime of torture’: the story of the woman Trump is rushing to execute","date":"January 14, 2021","dateISO":"2021-01-14T21:42:03.000Z","datetime":"2021-01-14 21:42","tags":["Foodforthought","reddit"],"image":null,"imageAlt":null,"__typename":"SocialMediaPost","provider":"Reddit","thirdPartyId":"78a38983-acb7-5875-96ff-892cc2414845","url":"https://www.reddit.com/r/Foodforthought/comments/ks94ik/a_lifetime_of_torture_the_story_of_the_woman/","originalUrl":"https://www.reddit.com/r/Foodforthought/comments/ks94ik/a_lifetime_of_torture_the_story_of_the_woman/","imageRemote":null,"video":null,"channel":"Foodforthought","channelUrl":"https://www.reddit.com/r/Foodforthought","author":"NoHandBananaNo","authorUrl":"https://www.reddit.com/user/NoHandBananaNo","authorImage":null,"authorSlug":"NoHandBananaNo","score":376,"views":null,"sharedCount":null,"likeCount":null,"sharedContent":null,"parent":{"localize":[{"title":"'一生的折磨'：特朗普急于处决的女人的故事。","the_new_excerpt":null,"locale":"zh"},{"title":"'一生的折磨'：特朗普急於處決的女人的故事。","the_new_excerpt":null,"locale":"zh-Hant"}]}},{"id":"RedditPost-63013daf-33d8-58bb-bc92-475e5b83ac4f","excerpt":"","slug":"/reddit/r/Foodforthought/comments/ksr051/the_polices_tepid_response_to_the_capitol_breach/","title":"The Police’s Tepid Response To The Capitol Breach Wasn’t An Aberration. Authorities are more than twice as likely to break up a left-wing protest than a right-wing protest. | FiveThirtyEight","date":"January 14, 2021","dateISO":"2021-01-14T21:42:03.000Z","datetime":"2021-01-14 21:42","tags":["Foodforthought","reddit"],"image":null,"imageAlt":null,"__typename":"SocialMediaPost","provider":"Reddit","thirdPartyId":"63013daf-33d8-58bb-bc92-475e5b83ac4f","url":"https://www.reddit.com/r/Foodforthought/comments/ksr051/the_polices_tepid_response_to_the_capitol_breach/","originalUrl":"https://www.reddit.com/r/Foodforthought/comments/ksr051/the_polices_tepid_response_to_the_capitol_breach/","imageRemote":null,"video":null,"channel":"Foodforthought","channelUrl":"https://www.reddit.com/r/Foodforthought","author":"radical_chic","authorUrl":"https://www.reddit.com/user/radical_chic","authorImage":null,"authorSlug":"radical_chic","score":1926,"views":null,"sharedCount":null,"likeCount":null,"sharedContent":null,"parent":{"localize":[{"title":"警方对国会大厦泄露事件的冷淡反应并不是一种反常现象。当局驱散左翼抗议活动的可能性是右翼抗议活动的两倍以上。| 五三八","the_new_excerpt":null,"locale":"zh"},{"title":"警方對國會大廈泄露事件的冷淡反應並不是一種反常現象。當局驅散左翼抗議活動的可能性是右翼抗議活動的兩倍以上。| 五三八","the_new_excerpt":null,"locale":"zh-Hant"}]}},{"id":"RedditPost-588c8b9b-4abf-5786-b041-f592f296b35f","excerpt":"","slug":"/reddit/r/Foodforthought/comments/ktsg5o/golf_is_a_giant_board_game_damaging_the_planet/","title":"Golf is a giant board game damaging the planet: Time for it to go","date":"January 14, 2021","dateISO":"2021-01-14T21:42:03.000Z","datetime":"2021-01-14 21:42","tags":["Foodforthought","reddit"],"image":null,"imageAlt":null,"__typename":"SocialMediaPost","provider":"Reddit","thirdPartyId":"588c8b9b-4abf-5786-b041-f592f296b35f","url":"https://www.reddit.com/r/Foodforthought/comments/ktsg5o/golf_is_a_giant_board_game_damaging_the_planet/","originalUrl":"https://www.reddit.com/r/Foodforthought/comments/ktsg5o/golf_is_a_giant_board_game_damaging_the_planet/","imageRemote":null,"video":null,"channel":"Foodforthought","channelUrl":"https://www.reddit.com/r/Foodforthought","author":"2legit2fart","authorUrl":"https://www.reddit.com/user/2legit2fart","authorImage":null,"authorSlug":"2legit2fart","score":539,"views":null,"sharedCount":null,"likeCount":null,"sharedContent":null,"parent":{"localize":[{"title":"高尔夫是破坏地球的巨大棋牌游戏。是时候让它消失了","the_new_excerpt":null,"locale":"zh"},{"title":"高爾夫是破壞地球的巨大棋牌遊戲。是時候讓它消失了","the_new_excerpt":null,"locale":"zh-Hant"}]}},{"id":"RedditPost-43fd487e-9e48-5d87-b40d-34f411b3a9e4","excerpt":"","slug":"/reddit/r/Foodforthought/comments/ku4pif/these_black_capitol_police_officers_describe/","title":"These Black Capitol Police Officers Describe Fighting Off \"Racist Ass Terrorists\"","date":"January 14, 2021","dateISO":"2021-01-14T21:42:03.000Z","datetime":"2021-01-14 21:42","tags":["Foodforthought","reddit"],"image":null,"imageAlt":null,"__typename":"SocialMediaPost","provider":"Reddit","thirdPartyId":"43fd487e-9e48-5d87-b40d-34f411b3a9e4","url":"https://www.reddit.com/r/Foodforthought/comments/ku4pif/these_black_capitol_police_officers_describe/","originalUrl":"https://www.reddit.com/r/Foodforthought/comments/ku4pif/these_black_capitol_police_officers_describe/","imageRemote":null,"video":null,"channel":"Foodforthought","channelUrl":"https://www.reddit.com/r/Foodforthought","author":"Timbukthree","authorUrl":"https://www.reddit.com/user/Timbukthree","authorImage":null,"authorSlug":"Timbukthree","score":528,"views":null,"sharedCount":null,"likeCount":null,"sharedContent":null,"parent":{"localize":[{"title":"这些黑人首都警察描述对抗 \"种族主义混蛋恐怖分子\"","the_new_excerpt":null,"locale":"zh"},{"title":"這些黑人首都警察描述對抗 \"種族主義混蛋恐怖分子\"","the_new_excerpt":null,"locale":"zh-Hant"}]}},{"id":"RedditPost-2f2baacf-bcc1-556f-ab04-5984c09de241","excerpt":"","slug":"/reddit/r/Foodforthought/comments/kufdbn/wikipedia_is_20_and_its_reputation_has_never_been/","title":"Wikipedia is 20, and its reputation has never been higher","date":"January 14, 2021","dateISO":"2021-01-14T21:42:03.000Z","datetime":"2021-01-14 21:42","tags":["Foodforthought","reddit"],"image":null,"imageAlt":null,"__typename":"SocialMediaPost","provider":"Reddit","thirdPartyId":"2f2baacf-bcc1-556f-ab04-5984c09de241","url":"https://www.reddit.com/r/Foodforthought/comments/kufdbn/wikipedia_is_20_and_its_reputation_has_never_been/","originalUrl":"https://www.reddit.com/r/Foodforthought/comments/kufdbn/wikipedia_is_20_and_its_reputation_has_never_been/","imageRemote":null,"video":null,"channel":"Foodforthought","channelUrl":"https://www.reddit.com/r/Foodforthought","author":"Sumit316","authorUrl":"https://www.reddit.com/user/Sumit316","authorImage":null,"authorSlug":"Sumit316","score":874,"views":null,"sharedCount":null,"likeCount":null,"sharedContent":null,"parent":{"localize":[{"title":"维基百科是20，它的声誉从来没有这么高过。","the_new_excerpt":null,"locale":"zh"},{"title":"維基百科是20，它的聲譽從來沒有這麼高過。","the_new_excerpt":null,"locale":"zh-Hant"}]}}]}},"pageContext":{"basePath":"/","pageType":"tag","tag":"Foodforthought","tagsFilter":{"id":{"glob":"!*Post-1"}},"filter":{"id":{"glob":"!*Post-1"},"tags":{"eq":"Foodforthought"}},"limit":25,"skip":325,"total":332,"totalPages":14,"currentPage":14,"maxWidth":1024,"maxHeight":512,"locale":"ja","hrefLang":"ja-JA","originalPath":"/tags/foodforthought/page/14","dateFormat":"YYYY-MM-DD"}},"staticQueryHashes":["1239077767","2506312863","2744905544","3025052997","3280999885","3948070931","68699025"]}