{"componentChunkName":"component---node-modules-gatsby-theme-buzzing-src-gatsby-theme-timeline-templates-posts-query-js","path":"/tags/foodforthought/page/14","result":{"data":{"site":{"siteMetadata":{"title":"深度思考","description":"用中文浏览国外深度报道，思考和讨论","social":[{"name":"Food For Thought","url":"https://www.reddit.com/r/Foodforthought/","external":true,"prefetch":null},{"name":"True Reddit","url":"https://www.reddit.com/r/TrueReddit/","external":true,"prefetch":null},{"name":"Buzzing","url":"https://www.buzzing.cc/","external":true,"prefetch":null}],"menuLinks":[],"localize":[{"locale":"en","title":"Buzzing on In-depth thinking","description":"See what's buzzing on In-depth thinking in your native language","social":{"name":null,"url":null,"external":null,"prefetch":null},"menuLinks":[{"name":"Weekly Selection","url":"/issues","external":null,"prefetch":null}]},{"locale":"zh-Hant","title":"深度思考","description":"用中文瀏覽國外深度報導，思考和討論","social":null,"menuLinks":[]},{"locale":"ja","title":"深い思考人気の話し合います","description":"人気の深い思考記事を日本語で閲覧","social":null,"menuLinks":[]}]}},"tagsGroup":{"group":[{"fieldValue":"Design Tools","totalCount":1},{"fieldValue":"Foodforthought","totalCount":335},{"fieldValue":"ProductHunt","totalCount":1},{"fieldValue":"TrueReddit","totalCount":306},{"fieldValue":"Youtube","totalCount":1},{"fieldValue":"dankmemes","totalCount":1},{"fieldValue":"reddit","totalCount":642}]},"allBlogPost":{"nodes":[{"id":"RedditPost-d553df01-2937-5793-aa3a-57d27579dc18","excerpt":"","slug":"/reddit/r/Foodforthought/comments/kntohn/republicans_dont_know_anything_about_their_party/","title":"Republicans Don't Know Anything About Their Party. That's Very Bad for American Democracy. – Large numbers of Republicans falsely believe their party supports protections for preexisting conditions, a $15 minimum wage, and Medicaid expansion","date":"January 14, 2021","dateISO":"2021-01-14T21:42:03.000Z","datetime":"2021-01-14 21:42","tags":["Foodforthought","reddit"],"image":null,"imageAlt":null,"__typename":"SocialMediaPost","provider":"Reddit","thirdPartyId":"d553df01-2937-5793-aa3a-57d27579dc18","url":"https://www.reddit.com/r/Foodforthought/comments/kntohn/republicans_dont_know_anything_about_their_party/","originalUrl":"https://www.reddit.com/r/Foodforthought/comments/kntohn/republicans_dont_know_anything_about_their_party/","imageRemote":null,"video":null,"channel":"Foodforthought","channelUrl":"https://www.reddit.com/r/Foodforthought","author":"smurfyjenkins","authorUrl":"https://www.reddit.com/user/smurfyjenkins","authorImage":null,"authorSlug":"smurfyjenkins","score":1519,"views":null,"sharedCount":null,"likeCount":null,"sharedContent":null,"parent":{"localize":[{"title":"共和党人对他们的党一无所知。这对美国民主非常不利。- 大批共和党人错误地认为，他们的政党支持保护既有条件、15美元的最低工资和扩大医疗补助。","the_new_excerpt":null,"locale":"zh"},{"title":"共和黨人對他們的黨一無所知。這對美國民主非常不利。- 大批共和黨人錯誤地認爲，他們的政黨支持保護既有條件、15美元的最低工資和擴大醫療補助。","the_new_excerpt":null,"locale":"zh-Hant"}]}},{"id":"RedditPost-27dddac9-d53c-57c5-a7cb-f39d187c27db","excerpt":"","slug":"/reddit/r/Foodforthought/comments/kpuwr2/we_consume_what_we_produce_sea_salt_micro_plastic/","title":"We consume what we produce. Sea salt, micro plastic particles in 90% of salt brands worldwide, no escape.","date":"January 14, 2021","dateISO":"2021-01-14T21:42:03.000Z","datetime":"2021-01-14 21:42","tags":["Foodforthought","reddit"],"image":null,"imageAlt":null,"__typename":"SocialMediaPost","provider":"Reddit","thirdPartyId":"27dddac9-d53c-57c5-a7cb-f39d187c27db","url":"https://www.reddit.com/r/Foodforthought/comments/kpuwr2/we_consume_what_we_produce_sea_salt_micro_plastic/","originalUrl":"https://www.reddit.com/r/Foodforthought/comments/kpuwr2/we_consume_what_we_produce_sea_salt_micro_plastic/","imageRemote":null,"video":null,"channel":"Foodforthought","channelUrl":"https://www.reddit.com/r/Foodforthought","author":"leepal700","authorUrl":"https://www.reddit.com/user/leepal700","authorImage":null,"authorSlug":"leepal700","score":610,"views":null,"sharedCount":null,"likeCount":null,"sharedContent":null,"parent":{"localize":[{"title":"我们消费我们生产的东西。全球90%的食盐品牌中的海盐、微塑料颗粒，无一幸免。","the_new_excerpt":null,"locale":"zh"},{"title":"我們消費我們生產的東西。全球90%的食鹽品牌中的海鹽、微塑料顆粒，無一倖免。","the_new_excerpt":null,"locale":"zh-Hant"}]}},{"id":"RedditPost-e1c53c0c-a584-5f01-bcc9-c4fd8ea9336e","excerpt":"","slug":"/reddit/r/Foodforthought/comments/kqa169/swimming_in_very_cold_water_keeps_me_sane_maybe/","title":"Swimming in Very Cold Water Keeps Me Sane. Maybe at another time in human history I would have cared about the health benefits, but at this point, I’m like, what does “good for you” even mean?","date":"January 14, 2021","dateISO":"2021-01-14T21:42:03.000Z","datetime":"2021-01-14 21:42","tags":["Foodforthought","reddit"],"image":null,"imageAlt":null,"__typename":"SocialMediaPost","provider":"Reddit","thirdPartyId":"e1c53c0c-a584-5f01-bcc9-c4fd8ea9336e","url":"https://www.reddit.com/r/Foodforthought/comments/kqa169/swimming_in_very_cold_water_keeps_me_sane_maybe/","originalUrl":"https://www.reddit.com/r/Foodforthought/comments/kqa169/swimming_in_very_cold_water_keeps_me_sane_maybe/","imageRemote":null,"video":null,"channel":"Foodforthought","channelUrl":"https://www.reddit.com/r/Foodforthought","author":"AngelaMotorman","authorUrl":"https://www.reddit.com/user/AngelaMotorman","authorImage":null,"authorSlug":"AngelaMotorman","score":328,"views":null,"sharedCount":null,"likeCount":null,"sharedContent":null,"parent":{"localize":[{"title":"在很冷的水中游泳让我保持清醒。也许在人类历史的另一个时期，我会关心健康的好处，但此时，我想，\"对你有好处 \"到底是什么意思？","the_new_excerpt":null,"locale":"zh"},{"title":"在很冷的水中游泳讓我保持清醒。也許在人類歷史的另一個時期，我會關心健康的好處，但此時，我想，\"對你有好處 \"到底是什麼意思？","the_new_excerpt":null,"locale":"zh-Hant"}]}},{"id":"RedditPost-2fd57501-00d5-59cf-a365-e550c368d8af","excerpt":"","slug":"/reddit/r/Foodforthought/comments/kqymm3/paychecktopaycheck_nation_why_even_americans_with/","title":"Paycheck-To-Paycheck Nation: Why Even Americans With Higher Income Struggle With Bills","date":"January 14, 2021","dateISO":"2021-01-14T21:42:03.000Z","datetime":"2021-01-14 21:42","tags":["Foodforthought","reddit"],"image":null,"imageAlt":null,"__typename":"SocialMediaPost","provider":"Reddit","thirdPartyId":"2fd57501-00d5-59cf-a365-e550c368d8af","url":"https://www.reddit.com/r/Foodforthought/comments/kqymm3/paychecktopaycheck_nation_why_even_americans_with/","originalUrl":"https://www.reddit.com/r/Foodforthought/comments/kqymm3/paychecktopaycheck_nation_why_even_americans_with/","imageRemote":null,"video":null,"channel":"Foodforthought","channelUrl":"https://www.reddit.com/r/Foodforthought","author":"speckz","authorUrl":"https://www.reddit.com/user/speckz","authorImage":null,"authorSlug":"speckz","score":653,"views":null,"sharedCount":null,"likeCount":null,"sharedContent":null,"parent":{"localize":[{"title":"薪资到薪水的国家。为什么即使是收入较高的美国人也会在账单上挣扎？","the_new_excerpt":null,"locale":"zh"},{"title":"薪資到薪水的國家。爲什麼即使是收入較高的美國人也會在賬單上掙扎？","the_new_excerpt":null,"locale":"zh-Hant"}]}},{"id":"RedditPost-2b4392b9-bc12-57cd-8129-4d0f88a1b17a","excerpt":"","slug":"/reddit/r/Foodforthought/comments/krm0eu/why_facebook_is_bad_twitter_might_be_a_little_bit/","title":"Why Facebook Is Bad, Twitter Might Be a Little Bit Good, and Social Media Is Rotting Our Brains","date":"January 14, 2021","dateISO":"2021-01-14T21:42:03.000Z","datetime":"2021-01-14 21:42","tags":["Foodforthought","reddit"],"image":null,"imageAlt":null,"__typename":"SocialMediaPost","provider":"Reddit","thirdPartyId":"2b4392b9-bc12-57cd-8129-4d0f88a1b17a","url":"https://www.reddit.com/r/Foodforthought/comments/krm0eu/why_facebook_is_bad_twitter_might_be_a_little_bit/","originalUrl":"https://www.reddit.com/r/Foodforthought/comments/krm0eu/why_facebook_is_bad_twitter_might_be_a_little_bit/","imageRemote":null,"video":null,"channel":"Foodforthought","channelUrl":"https://www.reddit.com/r/Foodforthought","author":"m_Pony","authorUrl":"https://www.reddit.com/user/m_Pony","authorImage":null,"authorSlug":"m_Pony","score":628,"views":null,"sharedCount":null,"likeCount":null,"sharedContent":null,"parent":{"localize":[{"title":"为什么Facebook不好，Twitter可能有点好，社交媒体正在腐烂我们的大脑？","the_new_excerpt":null,"locale":"zh"},{"title":"爲什麼Facebook不好，Twitter可能有點好，社交媒體正在腐爛我們的大腦？","the_new_excerpt":null,"locale":"zh-Hant"}]}},{"id":"RedditPost-78a38983-acb7-5875-96ff-892cc2414845","excerpt":"","slug":"/reddit/r/Foodforthought/comments/ks94ik/a_lifetime_of_torture_the_story_of_the_woman/","title":"‘A lifetime of torture’: the story of the woman Trump is rushing to execute","date":"January 14, 2021","dateISO":"2021-01-14T21:42:03.000Z","datetime":"2021-01-14 21:42","tags":["Foodforthought","reddit"],"image":null,"imageAlt":null,"__typename":"SocialMediaPost","provider":"Reddit","thirdPartyId":"78a38983-acb7-5875-96ff-892cc2414845","url":"https://www.reddit.com/r/Foodforthought/comments/ks94ik/a_lifetime_of_torture_the_story_of_the_woman/","originalUrl":"https://www.reddit.com/r/Foodforthought/comments/ks94ik/a_lifetime_of_torture_the_story_of_the_woman/","imageRemote":null,"video":null,"channel":"Foodforthought","channelUrl":"https://www.reddit.com/r/Foodforthought","author":"NoHandBananaNo","authorUrl":"https://www.reddit.com/user/NoHandBananaNo","authorImage":null,"authorSlug":"NoHandBananaNo","score":376,"views":null,"sharedCount":null,"likeCount":null,"sharedContent":null,"parent":{"localize":[{"title":"'一生的折磨'：特朗普急于处决的女人的故事。","the_new_excerpt":null,"locale":"zh"},{"title":"'一生的折磨'：特朗普急於處決的女人的故事。","the_new_excerpt":null,"locale":"zh-Hant"}]}},{"id":"RedditPost-63013daf-33d8-58bb-bc92-475e5b83ac4f","excerpt":"","slug":"/reddit/r/Foodforthought/comments/ksr051/the_polices_tepid_response_to_the_capitol_breach/","title":"The Police’s Tepid Response To The Capitol Breach Wasn’t An Aberration. Authorities are more than twice as likely to break up a left-wing protest than a right-wing protest. | FiveThirtyEight","date":"January 14, 2021","dateISO":"2021-01-14T21:42:03.000Z","datetime":"2021-01-14 21:42","tags":["Foodforthought","reddit"],"image":null,"imageAlt":null,"__typename":"SocialMediaPost","provider":"Reddit","thirdPartyId":"63013daf-33d8-58bb-bc92-475e5b83ac4f","url":"https://www.reddit.com/r/Foodforthought/comments/ksr051/the_polices_tepid_response_to_the_capitol_breach/","originalUrl":"https://www.reddit.com/r/Foodforthought/comments/ksr051/the_polices_tepid_response_to_the_capitol_breach/","imageRemote":null,"video":null,"channel":"Foodforthought","channelUrl":"https://www.reddit.com/r/Foodforthought","author":"radical_chic","authorUrl":"https://www.reddit.com/user/radical_chic","authorImage":null,"authorSlug":"radical_chic","score":1926,"views":null,"sharedCount":null,"likeCount":null,"sharedContent":null,"parent":{"localize":[{"title":"警方对国会大厦泄露事件的冷淡反应并不是一种反常现象。当局驱散左翼抗议活动的可能性是右翼抗议活动的两倍以上。| 五三八","the_new_excerpt":null,"locale":"zh"},{"title":"警方對國會大廈泄露事件的冷淡反應並不是一種反常現象。當局驅散左翼抗議活動的可能性是右翼抗議活動的兩倍以上。| 五三八","the_new_excerpt":null,"locale":"zh-Hant"}]}},{"id":"RedditPost-588c8b9b-4abf-5786-b041-f592f296b35f","excerpt":"","slug":"/reddit/r/Foodforthought/comments/ktsg5o/golf_is_a_giant_board_game_damaging_the_planet/","title":"Golf is a giant board game damaging the planet: Time for it to go","date":"January 14, 2021","dateISO":"2021-01-14T21:42:03.000Z","datetime":"2021-01-14 21:42","tags":["Foodforthought","reddit"],"image":null,"imageAlt":null,"__typename":"SocialMediaPost","provider":"Reddit","thirdPartyId":"588c8b9b-4abf-5786-b041-f592f296b35f","url":"https://www.reddit.com/r/Foodforthought/comments/ktsg5o/golf_is_a_giant_board_game_damaging_the_planet/","originalUrl":"https://www.reddit.com/r/Foodforthought/comments/ktsg5o/golf_is_a_giant_board_game_damaging_the_planet/","imageRemote":null,"video":null,"channel":"Foodforthought","channelUrl":"https://www.reddit.com/r/Foodforthought","author":"2legit2fart","authorUrl":"https://www.reddit.com/user/2legit2fart","authorImage":null,"authorSlug":"2legit2fart","score":539,"views":null,"sharedCount":null,"likeCount":null,"sharedContent":null,"parent":{"localize":[{"title":"高尔夫是破坏地球的巨大棋牌游戏。是时候让它消失了","the_new_excerpt":null,"locale":"zh"},{"title":"高爾夫是破壞地球的巨大棋牌遊戲。是時候讓它消失了","the_new_excerpt":null,"locale":"zh-Hant"}]}},{"id":"RedditPost-43fd487e-9e48-5d87-b40d-34f411b3a9e4","excerpt":"","slug":"/reddit/r/Foodforthought/comments/ku4pif/these_black_capitol_police_officers_describe/","title":"These Black Capitol Police Officers Describe Fighting Off \"Racist Ass Terrorists\"","date":"January 14, 2021","dateISO":"2021-01-14T21:42:03.000Z","datetime":"2021-01-14 21:42","tags":["Foodforthought","reddit"],"image":null,"imageAlt":null,"__typename":"SocialMediaPost","provider":"Reddit","thirdPartyId":"43fd487e-9e48-5d87-b40d-34f411b3a9e4","url":"https://www.reddit.com/r/Foodforthought/comments/ku4pif/these_black_capitol_police_officers_describe/","originalUrl":"https://www.reddit.com/r/Foodforthought/comments/ku4pif/these_black_capitol_police_officers_describe/","imageRemote":null,"video":null,"channel":"Foodforthought","channelUrl":"https://www.reddit.com/r/Foodforthought","author":"Timbukthree","authorUrl":"https://www.reddit.com/user/Timbukthree","authorImage":null,"authorSlug":"Timbukthree","score":528,"views":null,"sharedCount":null,"likeCount":null,"sharedContent":null,"parent":{"localize":[{"title":"这些黑人首都警察描述对抗 \"种族主义混蛋恐怖分子\"","the_new_excerpt":null,"locale":"zh"},{"title":"這些黑人首都警察描述對抗 \"種族主義混蛋恐怖分子\"","the_new_excerpt":null,"locale":"zh-Hant"}]}},{"id":"RedditPost-2f2baacf-bcc1-556f-ab04-5984c09de241","excerpt":"","slug":"/reddit/r/Foodforthought/comments/kufdbn/wikipedia_is_20_and_its_reputation_has_never_been/","title":"Wikipedia is 20, and its reputation has never been higher","date":"January 14, 2021","dateISO":"2021-01-14T21:42:03.000Z","datetime":"2021-01-14 21:42","tags":["Foodforthought","reddit"],"image":null,"imageAlt":null,"__typename":"SocialMediaPost","provider":"Reddit","thirdPartyId":"2f2baacf-bcc1-556f-ab04-5984c09de241","url":"https://www.reddit.com/r/Foodforthought/comments/kufdbn/wikipedia_is_20_and_its_reputation_has_never_been/","originalUrl":"https://www.reddit.com/r/Foodforthought/comments/kufdbn/wikipedia_is_20_and_its_reputation_has_never_been/","imageRemote":null,"video":null,"channel":"Foodforthought","channelUrl":"https://www.reddit.com/r/Foodforthought","author":"Sumit316","authorUrl":"https://www.reddit.com/user/Sumit316","authorImage":null,"authorSlug":"Sumit316","score":874,"views":null,"sharedCount":null,"likeCount":null,"sharedContent":null,"parent":{"localize":[{"title":"维基百科是20，它的声誉从来没有这么高过。","the_new_excerpt":null,"locale":"zh"},{"title":"維基百科是20，它的聲譽從來沒有這麼高過。","the_new_excerpt":null,"locale":"zh-Hant"}]}}]}},"pageContext":{"basePath":"/","pageType":"tag","tag":"Foodforthought","tagsFilter":{"id":{"glob":"!*Post-1"}},"filter":{"id":{"glob":"!*Post-1"},"tags":{"eq":"Foodforthought"}},"limit":25,"skip":325,"total":335,"totalPages":14,"currentPage":14,"maxWidth":1024,"maxHeight":512,"locale":"zh","hrefLang":"zh-Hans","originalPath":"/tags/foodforthought/page/14","dateFormat":"YYYY-MM-DD"}},"staticQueryHashes":["1239077767","2506312863","2744905544","3025052997","3280999885","3948070931","68699025"]}